Place,Name,BirthYear,BodyweightKg,Country,Squat1Kg,Squat2Kg,Squat3Kg,Squat4Kg,Best3SquatKg,Bench1Kg,Bench2Kg,Bench3Kg,Bench4Kg,Best3BenchKg,Deadlift1Kg,Deadlift2Kg,Deadlift3Kg,Deadlift4Kg,Best3DeadliftKg,TotalKg,Event,Equipment,Sex,Division,WeightClassKg,BirthDate,Age
1,Nikol Lenghartová,2006,82,Slovakia,105,-115,-115,-115,105,,,,,,,,,,,105,S,Wraps,F,T2,82.5,2006-02-13,16
1,Tereza Šimková,2004,78.5,Czechia,80,90,-100,,90,,,,,,,,,,,90,S,Wraps,F,T3,82.5,2004-02-03,18
1,Petra Szőcs,2004,87.2,Hungary,120,125,130,,130,,,,,,,,,,,130,S,Wraps,F,T3,90,2004-09-22,18
1,Cintia Csordás,1995,55.1,Hungary,107.5,113,115,-117.5,115,,,,,,,,,,,115,S,Wraps,F,O,56,1995-07-19,27
1,Dóra Balogh,1994,65.7,Hungary,-117.5,117.5,122.5,,122.5,,,,,,,,,,,122.5,S,Wraps,F,O,67.5,1994-12-30,27
1,Simona Rančev,2002,58.8,Czechia,85,92.5,-100,,92.5,,,,,,,,,,,92.5,S,Wraps,F,J,60,2002-02-28,20
1,Grazielle Silva,1982,55.5,Brazil,135,-140,140,145,140,,,,,,,,,,,140,S,Wraps,F,M1,56,1982-02-14,40
2,Leena Stålstedt,1968,75.2,Finland,100,-115,115,,115,,,,,,,,,,,115,S,Wraps,F,M3,82.5,1968-06-24,54
1,Annjanette Saunders,1969,80.5,UK,150,170,-190,,170,,,,,,,,,,,170,S,Wraps,F,M3,82.5,1969-12-01,52
1,Katrin Ribb,1970,83.8,Germany,90,100,105,,105,,,,,,,,,,,105,S,Wraps,F,M3,90,1970-04-12,52
1,Puzio Krystyna Abramczyk,1965,104.2,Poland,150,160,170,,170,,,,,,,,,,,170,S,Wraps,F,M4,110,1965-04-23,57
1,Christine Henwood,1958,72,New Zealand,-150,150,-160,,150,,,,,,,,,,,150,S,Wraps,F,M5,75,1958-02-26,64
1,Alexander Kopálek,2007,74.9,Slovakia,130,140,-145.5,,140,,,,,,,,,,,140,S,Wraps,M,T1,75,2007-02-20,15
1,Lubomír Fábry,2008,94.4,Slovakia,100,120,125,,125,,,,,,,,,,,125,S,Wraps,M,T1,100,2008-11-04,13
1,Radek Knápek,2003,74.2,Czechia,222.5,-227.5,,,222.5,,,,,,,,,,,222.5,S,Wraps,M,T3,75,2003-04-14,19
1,Tibor Kiss,1988,94.5,Hungary,250,260,270,,270,,,,,,,,,,,270,S,Wraps,M,O,100,1988-10-17,34
2,Martin Studnička,1993,97.2,Czechia,205,220,-230,,220,,,,,,,,,,,220,S,Wraps,M,O,100,1993-02-14,29
1,Marcel Rothauszky,1995,108.5,Germany,300,320,-335,342.5,320,,,,,,,,,,,320,S,Wraps,M,O,110,1995-07-30,27
1,Gábor Kocsis,1992,129.4,Hungary,280,300,315,320,315,,,,,,,,,,,315,S,Wraps,M,O,140,1992-09-11,30
1,Tomáš Thüringer,1989,152.1,Slovakia,200,250,272.5,,272.5,,,,,,,,,,,272.5,S,Wraps,M,O,140+,1989-02-02,33
1,Gábor Kiss #3,2001,86.7,Hungary,190,-200,200,,200,,,,,,,,,,,200,S,Wraps,M,J,90,2001-08-28,21
1,Filip Rotter,1999,95.5,Czechia,-270,280,-305,,280,,,,,,,,,,,280,S,Wraps,M,J,100,1999-08-27,23
1,Alex Piciga,1981,73.6,Slovenia,-150,150,152.5,,152.5,,,,,,,,,,,152.5,S,Wraps,M,M1,75,1981-10-26,40
1,Dariusz Zwoliński,1974,90.6,Poland,150,160,165,,165,,,,,,,,,,,165,S,Wraps,M,M2,100,1974-11-06,47
1,Josef Jeníček,1973,105.9,Czechia,160,180,192.5,,192.5,,,,,,,,,,,192.5,S,Wraps,M,M2,110,1973-06-16,49
1,Milan Greguš,1968,99.7,Czechia,257.5,,-262.5,,257.5,,,,,,,,,,,257.5,S,Wraps,M,M3,100,1968-04-30,54
1,László Kiss,1969,106.7,Hungary,240,250,-260,,250,,,,,,,,,,,250,S,Wraps,M,M3,110,1969-04-08,53
2,Tibor Manzera,1968,110.1,Hungary,90,,,,90,,,,,,,,,,,90,S,Wraps,M,M3,125,1968-09-12,54
1,Hagen Ribb,1970,111.8,Germany,180,210,-225,,210,,,,,,,,,,,210,S,Wraps,M,M3,125,1970-06-03,52
1,Tomáš Leinveber,1972,134.1,Czechia,217.5,-225,-225,,217.5,,,,,,,,,,,217.5,S,Wraps,M,M3,140,1972-05-22,50
1,László Jantek,1965,82.3,Hungary,200,220,-235,-235,220,,,,,,,,,,,220,S,Wraps,M,M4,82.5,1965-12-13,56
1,Zbigniew Koper,1953,72.8,Poland,120,130,135,,135,,,,,,,,,,,135,S,Wraps,M,M6,75,1953-10-04,69
1,Mieczysłąw Maczka,1954,84.4,Germany,-120,125,,,125,,,,,,,,,,,125,S,Wraps,M,M6,90,1954-09-11,68
1,Vladimír Svoboda,1952,92.2,Czechia,130,135,140,,140,,,,,,,,,,,140,S,Wraps,M,M7,100,1952-08-12,70
2,Jozef Meravý,1950,96.9,Slovakia,80,115,120,,120,,,,,,,,,,,120,S,Wraps,M,M7,100,1950-04-20,72
1,Jozef Bartek,1945,76.3,Slovakia,60,-70,-70,,60,,,,,,,,,,,60,S,Wraps,M,M8,82.5,1945-03-06,77
1,Ernest Ruzin,1937,62.2,Israel,115,125,130,,130,,,,,,,,,,,130,S,Wraps,M,M9,67.5,1937-06-20,85
1,Hana Malinová,1983,63.3,Czechia,100,112.5,120,,120,,,,,,,,,,,120,S,Multi-ply,F,O,67.5,1983-09-11,39
1,Lesley Jayne Thomas,1966,59.1,UK,140,150,160,165,160,,,,,,,,,,,160,S,Multi-ply,F,M4,60,1966-04-21,56
1,Tomáš Kunz,2002,64.3,Czechia,180,200,-210,,200,,,,,,,,,,,200,S,Multi-ply,M,J,67.5,2002-05-16,20
1,Tomáš Múdrý,1994,89.2,Slovakia,270,290,-300,,290,,,,,,,,,,,290,S,Multi-ply,M,O,90,1994-01-11,28
1,Darren Bennett,1984,107,Ireland,260,290,301,,301,,,,,,,,,,,301,S,Multi-ply,M,O,110,1984-07-27,38
1,Milan Greguš,1968,99.7,Czechia,285,300,-306,,300,,,,,,,,,,,300,S,Multi-ply,M,M3,100,1968-04-30,54
1,Tibor Manzera,1968,110.1,Hungary,90,,,,90,,,,,,,,,,,90,S,Multi-ply,M,M3,125,1968-09-12,54
1,Vladimír Gosin,1965,93.8,Israel,280,300,,,300,,,,,,,,,,,300,S,Multi-ply,M,M4,100,1965-06-06,57
1,Pavel Malina,1960,62.2,Czechia,155,165,175,,175,,,,,,,,,,,175,S,Multi-ply,M,M5,67.5,1960-02-25,62
1,Karol Brečka,1961,75.4,Czechia,195,205,,,205,,,,,,,,,,,205,S,Multi-ply,M,M5,82.5,1961-04-16,61
1,Marshall Lee,1959,114.4,UK,280,290,-300,,290,,,,,,,,,,,290,S,Multi-ply,M,M5,125,1959-01-11,63
1,Mieczysłąw Maczka,1954,84.4,Germany,120,,,,120,,,,,,,,,,,120,S,Multi-ply,M,M6,90,1954-09-11,68
1,David Rex Thomas,1951,108.5,UK,135,,,,135,,,,,,,,,,,135,S,Multi-ply,M,M7,110,1951-07-12,71
1,Eliška Lapková,2007,59.5,Czechia,120,127.5,130,,130,50,-52.5,52.5,,52.5,110,-115,,,110,292.5,SBD,Wraps,F,T1,60,2007-08-31,15
1,Sarah Mavro,2005,45.1,UK,70,80,-87.5,,80,35,-37.5,37.5,,37.5,70,80,85,,85,202.5,SBD,Wraps,F,T2,48,2005-10-31,16
DQ,Nikol Lenghartová,2006,79.2,Slovakia,-105,-105,-115,,,,,,,,,,,,,,SBD,Wraps,F,T2,82.5,2006-02-13,16
1,Gréta Maczelka,2005,88.4,Hungary,95,-102.5,-102.5,,95,45,47.5,50,,50,147.5,152.5,-156,,152.5,297.5,SBD,Wraps,F,T2,90,2005-12-07,16
DQ,Veronika Ťapková,2004,53.5,Slovakia,-110,-110,-110,,,,,,,,,,,,,,SBD,Wraps,F,T3,56,2004-06-25,18
1,Izzy Fagan,2003,65,UK,105,120,130,,130,60,70,77.5,-80,77.5,135,150,160,-162.5,160,367.5,SBD,Wraps,F,T3,67.5,2003-09-19,19
1,Sabrina Brandt,1983,119.7,Germany,90,110,-130,,110,85,-87.5,-87.5,,85,140,150,160.5,,160.5,355.5,SBD,Wraps,F,O,110+,1983-08-13,39
DQ,Petra Kubicová,1988,46.2,Slovakia,-70,70,75,,75,-50,-50,-50,,,,,,,,,SBD,Wraps,F,O,48,1988-08-19,34
1,Edina Somogyi,1991,47.3,Hungary,85,95,100,,100,55,60,65,,65,90,100,110,,110,275,SBD,Wraps,F,O,48,1991-12-23,30
2,Rabia Shahzad,1998,51.4,Pakistan,75,82.5,85,,85,45,50,-52.5,,50,120,127.5,132.5,,132.5,267.5,SBD,Wraps,F,O,52,1998-07-11,24
1,Roksolana Busko,1996,52,Ukraine,130,140,-150,,140,67.5,70,72.5,,72.5,140,147.5,155,,155,367.5,SBD,Wraps,F,O,52,1996-03-04,26
1,Mariša Golob,1990,55.4,Slovenia,140,150,155,,155,95,-100,-100,,95,165,175,180,,180,430,SBD,Wraps,F,O,56,1990-05-25,32
2,Claire Rutland,1996,60.9,UK,127.5,-137.5,137.5,,137.5,72.5,-77.5,-77.5,,72.5,130,-142.5,145,,145,355,SBD,Wraps,F,O,67.5,1996-07-11,26
1,Aleksandra Szymczykowska,1998,61.6,Poland,-170,170,185,,185,105,110,-115,,110,170,175,-177.5,,175,470,SBD,Wraps,F,O,67.5,1998-04-17,24
4,Gemma Brown,1985,65.3,Scotland,110,120,130,,130,50,-52.5,-52.5,,50,125,137.5,142.5,,142.5,322.5,SBD,Wraps,F,O,67.5,1985-01-18,37
4,Violetta Jessica Varga,1995,73,Hungary,125,-135,-135,,125,77.5,85,-90,,85,140,150,160,,160,370,SBD,Wraps,F,O,75,1995-05-28,27
1,Eszter Tompa,1984,73.6,Hungary,155,167.5,172.5,,172.5,70,77.5,82.5,,82.5,150,165,172.5,,172.5,427.5,SBD,Wraps,F,O,75,1984-11-21,37
3,Kristýna Kohoutová,1996,74.2,Czechia,155,-170,-170,,155,70,77.5,82.5,,82.5,155,167.5,172.5,,172.5,410,SBD,Wraps,F,O,75,1996-10-28,25
2,Aimee Brown,1995,74.6,Scotland,150,160,170,,170,67.5,70,75,,75,160,172.5,-185,,172.5,417.5,SBD,Wraps,F,O,75,1995-05-31,27
5,Michaela Kučerová,1998,74.7,Czechia,130,-137.5,-137.5,,130,72.5,-77.5,-77.5,,72.5,145,152.5,,,152.5,355,SBD,Wraps,F,O,75,1998-09-18,24
3,Lenka Karabová,1997,79,Slovakia,120,-130,-135,,120,70,75,-77.5,,75,140,150,155,,155,350,SBD,Wraps,F,O,82.5,1997-05-18,25
1,Samantha Evans,1987,79.1,UK,160,,,,160,105,110,-115,,110,210,230,245,,245,515,SBD,Wraps,F,O,82.5,1987-09-09,35
2,Samantha Cunningham,1994,82.3,Scotland,-160,165,-172.5,,165,70,72.5,-75,,72.5,177.5,185,-190,,185,422.5,SBD,Wraps,F,O,82.5,1994-03-31,28
2,Marie Tomečková,1998,83.6,Czechia,160,170,182.5,,182.5,75,82.5,-87.5,,82.5,180,190,-200,,190,455,SBD,Wraps,F,O,90,1998-03-25,24
1,Gemma Young,1989,87.3,Scotland,200,221,-227.5,,221,92.5,97.5,-102.5,,97.5,200,217.5,-222.5,,217.5,536,SBD,Wraps,F,O,90,1989-01-30,33
1,Stella Širmerová,1999,47.6,Czechia,-70,-70,70,,70,45,-47.5,-47.5,,45,115,120,-125,,120,235,SBD,Wraps,F,J,48,1999-07-10,23
1,Terézia Sobotová,2000,51.4,Slovakia,-115,-126,126,,126,45,-55,-55,,45,100,115,120,,120,291,SBD,Wraps,F,J,52,2000-08-22,22
1,Tereza Rykrová,2001,56.9,Czechia,120,130,-135,,130,52.5,-57.5,-57.5,,52.5,130,-140,-140,,130,312.5,SBD,Wraps,F,J,60,2001-10-21,20
3,Zuzana Mautnerová,2000,67.7,Czechia,80,85,-95,,85,57.5,60,-62.5,,60,115,122.5,-130,,122.5,267.5,SBD,Wraps,F,J,75,2000-09-04,22
1,Michaela Zemanová,2000,68.2,Czechia,170,180,190,,190,87.5,92.5,95,,95,180,187.5,190,,190,475,SBD,Wraps,F,J,75,2000-01-12,22
2,Natalija Bedene,2001,74,Slovenia,100,115,120,,120,40,-45,-45,,40,100,110,115,,115,275,SBD,Wraps,F,J,75,2001-06-20,21
1,Kristína Kastelic,2001,78.1,Slovenia,140,-145,145,,145,45,50,-52.5,,50,135,145,150,,150,345,SBD,Wraps,F,J,82.5,2001-03-16,21
1,Ágnes Papp,1978,49.5,Hungary,60,70,-80,,70,40,42.5,45,,45,100,110,-120,,110,225,SBD,Wraps,F,M1,52,1978-01-19,44
3,Kristine Rathena,1982,66.5,Latvia,115,125,132.5,,132.5,55,60,62.5,,62.5,120,130,137.5,,137.5,332.5,SBD,Wraps,F,O,67.5,1982-08-12,40
1,Carrie Annis,1980,72.9,UK,165,-180,-180,,165,85,90,95,,95,160,175,-185,,175,435,SBD,Wraps,F,M1,75,1980-06-04,42
2,Wendy Stewart,1978,74.3,Scotland,-125,132.5,142.5,,142.5,67.5,72.5,-77.5,,72.5,165,-170,,,165,380,SBD,Wraps,F,M1,75,1978-09-13,44
1,Brenda Fitzgerald,1981,89.4,Ireland,-130,130,140,,140,60,-70,-70,,60,125,135,142.5,150,142.5,342.5,SBD,Wraps,F,M1,90,1981-06-11,41
1,Andreja Valant,1980,96.1,Slovenia,150,-160,,,150,50,60,67.5,,67.5,130,150,-160,,150,367.5,SBD,Wraps,F,M1,110,1980-09-09,42
1,Renáta Pápai,1976,59.3,Hungary,120,-130,-133,,120,60,65,67.5,,67.5,120,-132.5,140,,140,327.5,SBD,Wraps,F,M2,60,1976-07-19,46
2,Julie Davis #1,1976,66,UK,145,-155,-157.5,,145,77.5,82.5,-85,,82.5,160,167.5,172.5,,172.5,400,SBD,Wraps,F,M2,67.5,1976-05-15,46
1,Laura Pešić,1976,66.9,Serbia,-190,190,195,201,195,95,97.5,100,101,100,190,195,200,202.5,200,495,SBD,Wraps,F,M2,67.5,1976-05-27,46
1,Irina Pomerantsev,1970,43.3,Israel,50,55,60,,60,-55,-57.5,57.5,,57.5,75,80,82.5,,82.5,200,SBD,Wraps,F,M3,44,1970-06-08,52
1,Marcela Zazvonilová,1971,54.7,Czechia,95,105.5,112.5,,112.5,52.5,57.5,62.5,,62.5,125,135,140.5,145,140.5,315.5,SBD,Wraps,F,M3,56,1971-07-01,51
1,Judit Palecian,1971,59.1,Hungary,90,102.5,110,,110,65,72.5,77.5,-78.5,77.5,110,122.5,130.5,131,130.5,318,SBD,Wraps,F,M3,60,1971-11-30,50
1,Annjanette Saunders,1969,73.9,UK,-175,180,-190,,180,95,100,-105,,100,180,190,-197.5,,190,470,SBD,Wraps,F,M3,75,1969-12-01,52
1,Leena Stålstedt,1968,75.9,Finland,100,-115,115,,115,-77.5,77.5,85,,85,110,120,,,120,320,SBD,Wraps,F,M3,82.5,1968-06-24,54
1,Katrin Ribb,1970,83.4,Germany,90,100,107.5,,107.5,90,100,102.5,-105,102.5,135.5,140,150.5,155,150.5,360.5,SBD,Wraps,F,M3,90,1970-04-12,52
1,Ana Catia Portilho Couto,1966,69,Brazil,95,100,110,,110,75,80,85,,85,130,137.5,142.5,,142.5,337.5,SBD,Wraps,F,M4,75,1966-10-21,55
1,Christine Henwood,1958,71.4,New Zealand,150,160,165,,165,85,90,92.5,-95,92.5,175,182.5,-190,,182.5,440,SBD,Wraps,F,M5,75,1958-02-26,64
2,Katarína Zajková,1961,73.3,Slovakia,80,85,,,85,45,50,55,,55,130,135,,,135,275,SBD,Wraps,F,M5,75,1961-07-18,61
1,Květuše Baranovičová,1953,57.8,Slovakia,40,-45,,,40,30,35,,,35,80,90,,,90,165,SBD,Wraps,F,M6,60,1953-03-12,69
1,Roberts Lintinš,2007,107.5,Latvia,190,200,-207.5,,200,110,-117.5,-117.5,,110,195,211,,,211,521,SBD,Wraps,M,T1,110,2007-01-26,15
1,Martin Balla,2008,54.9,Slovakia,-75,75,80,,80,-45,45,-47.5,,45,130,-135,-138,-138,130,255,SBD,Wraps,M,T1,56,2008-03-30,14
1,Tobias Majstrák,2009,58.8,Slovakia,70,80,90,,90,40,50,55,,55,70,80,90,,90,235,SBD,Wraps,M,T1,60,2009-03-29,13
2,Máté Faragó,2007,65.5,Hungary,115,125,-135,,125,90,95,100,,100,170,-182.5,187.5,,187.5,412.5,SBD,Wraps,M,T1,67.5,2007-03-30,15
1,Joonas Viitanen,2006,67.1,Finland,160,170,-175,,170,90,-95,-100,,90,190,200.5,-210.5,,200.5,460.5,SBD,Wraps,M,T1,67.5,2006-12-08,15
1,Alexander Kopálek,2007,73.4,Slovakia,125,135,-142.5,,135,50,60,-62.5,,60,115,125,-132.5,,125,320,SBD,Wraps,M,T1,75,2007-07-28,15
1,Michal Kastner,2008,87.3,Czechia,105,115,125,,125,70,77.5,-80,,77.5,65,,,,65,267.5,SBD,Wraps,M,T1,90,2008-08-24,14
2,Lubomír Fábry,2008,95.6,Slovakia,100,115,120,,120,70,77.5,80,,80,140,155,-167.5,,155,355,SBD,Wraps,M,T1,100,2008-11-04,13
1,Gvido Ozols,2008,97.2,Latvia,135,-145,145,,145,55,60,-67.5,,60,155,160,-167.5,,160,365,SBD,Wraps,M,T1,100,2008-07-13,14
2,Adam Kaiser,2005,104,Czechia,200,207.5,-215,,207.5,115,120,-125,,120,190,200,210,,210,537.5,SBD,Wraps,M,T2,110,2005-03-04,17
1,Jan Lacina,2005,109.8,Czechia,260,-300,-300,,260,130,140,145,,145,270.5,300,-310,,300,705,SBD,Wraps,M,T2,110,2005-05-07,17
1,Leon-Tyler Brockett,2005,118.4,UK,220,240,255.5,,255.5,115,122.5,130,,130,250,265.5,270.5,-275,270.5,656,SBD,Wraps,M,T2,125,2005-11-26,16
1,Martin Bláha,2006,134.2,Czechia,-240,240,-260,,240,160,-170,-170,,160,190,-215,215,,215,615,SBD,Wraps,M,T2,140,2006-03-08,16
1,František Straka,2005,73.3,Czechia,150,-170,170,,170,80,100,-105,,100,160,180,190,,190,460,SBD,Wraps,M,T2,75,2005-02-18,17
2,Samuel Petrík,2005,74.7,Slovakia,170,-180,-180,,170,80,85,-90,,85,170,180,-190,,180,435,SBD,Wraps,M,T2,75,2005-03-24,17
2,Nikolas Pastier,2004,81.4,Slovakia,-140,145,-160,,145,90,100,-102.5,,100,-180,190,200,,200,445,SBD,Wraps,M,T2,82.5,2004-12-15,17
1,Ondřej Ščuglík,2006,82.3,Czechia,-240,-255,255,,255,130,140,,,140,240,260,-265,,260,655,SBD,Wraps,M,T2,82.5,2006-07-07,16
1,Truong An Vu,2004,88.4,Czechia,180,200,-220,,200,100,-107.5,107.5,,107.5,170,190,-195,,190,497.5,SBD,Wraps,M,T2,90,2004-11-06,17
2,Juris Ullas,2005,89,Latvia,170,180,190,,190,-85,90,-97.5,,90,180,-195,200,,200,480,SBD,Wraps,M,T2,90,2005-11-10,16
3,Andrej Kukura,2005,92,Slovakia,180,-190,-200,,180,-120,120,125,,125,190,205,-215,,205,510,SBD,Wraps,M,T2,100,2005-03-19,17
1,Filip Zajíček,2005,94.6,Czechia,220,-245,255,,255,125,-135,135,,135,260,280,-300,-300,280,670,SBD,Wraps,M,T2,100,2005-10-01,17
2,Pavel Jonák,2004,98.6,Czechia,200,-220,-230,,200,125,135,140,,140,200,220,-230,,220,560,SBD,Wraps,M,T2,100,2004-12-21,17
1,Jakub Lukáčik,2004,101.4,Slovakia,185,-195,195,,195,125,132.5,-140,,132.5,230,-245,245,,245,572.5,SBD,Wraps,M,T3,110,2004-02-23,18
1,Márkó Van Baggem,2003,116.4,Hungary,240,260,-272.5,,260,150,160,170,,170,270,282.5,-300,,282.5,712.5,SBD,Wraps,M,T3,125,2003-03-10,19
1,Tomáš Parížek,2004,55.5,Slovakia,120,135,-140,,135,60,65,-70,,65,165,-175,175,,175,375,SBD,Wraps,M,T3,56,2004-09-10,18
1,Paul Mavro,2004,59.3,UK,165,177.5,185,,185,87.5,95,-100,,95,-200,200,-220,-220,200,480,SBD,Wraps,M,T3,60,2004-04-06,18
1,Miroslav Marcinek,2003,65.4,Slovakia,135,-145,-145,,135,95,105,-113.5,,105,-160,160,-180,,160,400,SBD,Wraps,M,T3,67.5,2003-09-19,19
DQ,Marek Kratochvíl,2003,66.2,Czechia,-160,-160,-160,,,,,,,,,,,,,,SBD,Wraps,M,T3,67.5,2003-04-13,19
7,Samuel Petrík,2004,72.3,Slovakia,150,-160,-160,,150,65,70,-75,,70,150,162.5,-170,,162.5,382.5,SBD,Wraps,M,T3,75,2004-10-04,18
2,Martin Chudoba,2002,72.7,Czechia,200,210,-220,,210,105,112.5,117.5,,117.5,200,220,230,,230,557.5,SBD,Wraps,M,T3,75,2002-11-02,19
6,Adam Jonák,2004,72.9,Czechia,130,145,-152.5,,145,80,87.5,-95,,87.5,140,-160,165,,165,397.5,SBD,Wraps,M,T3,75,2004-07-01,18
5,Marián Kamenský,2003,73.4,Slovakia,170,-185,185,,185,100,110,-120,,110,-210,210,-230,,210,505,SBD,Wraps,M,T3,75,2003-10-08,19
3,Dominic Merrell,2003,73.7,UK,200,-207.5,-207.5,,200,115,122.5,-127.5,,122.5,215,230,-237.5,,230,552.5,SBD,Wraps,M,T3,75,2003-04-14,19
1,Radek Knápek,2003,74.6,Czechia,220,235,-240,,235,140,-147.5,-147.5,,140,185,195,200,,200,575,SBD,Wraps,M,T3,75,2003-04-14,19
4,Andrej Nika,2003,74.8,Slovakia,-180,180,-200,,180,115,-125,-125,,115,235,-250.5,-250.5,,235,530,SBD,Wraps,M,T3,75,2003-08-08,19
1,Aleš Keřlík,2002,80,Czechia,250,270,-275,,270,115,125,-130,,125,275,-300,-300,,275,670,SBD,Wraps,M,T3,82.5,2002-10-25,19
2,Gal Maršič,2003,80.8,Slovenia,-260,-270,270,,270,145,-155,-155,,145,-210,210,,,210,625,SBD,Wraps,M,T3,82.5,2003-09-22,19
3,Balázs Juhász,2004,80.9,Hungary,182.5,197.5,-205,,197.5,110,-115,-115,,110,192.5,202.5,-207.5,,202.5,510,SBD,Wraps,M,T3,82.5,2004-05-26,18
1,Samuel Hippík,2004,87.6,Slovakia,195,207.5,-212.5,,207.5,102.5,-110,110,,110,225,237.5,-242.5,,237.5,555,SBD,Wraps,M,T3,90,2004-06-22,18
3,Kiril Karlík,2002,87.8,Slovakia,180,190,-195,,190,105,-110,,,105,205,-220,-220,,205,500,SBD,Wraps,M,T3,90,2002-12-05,19
2,Matěj Bělina,2003,89.4,Czechia,170,185,200,,200,95,105,-107.5,,105,-230,-230,230,,230,535,SBD,Wraps,M,T3,90,2003-05-17,19
3,Antonín Lejsek,2004,91.7,Czechia,160,180,190,,190,85,95,-100,,95,190,210,225,,225,510,SBD,Wraps,M,T3,100,2004-10-11,18
1,Sebastián Kušnier,2004,96.5,Slovakia,215,230,240,,240,130,140,147.5,,147.5,230,250,257.5,,257.5,645,SBD,Wraps,M,T3,100,2004-04-05,18
2,Johannes Fiedler,2003,98.6,Germany,190,210,-220,,210,105,115,120,,120,200,220,240,,240,570,SBD,Wraps,M,T3,100,2003-05-16,19
7,Marek Muška,1989,100,Slovakia,240,260,-270,,260,140,152.5,160,,160,240,-255,-255,,240,660,SBD,Wraps,M,O,100,1989-07-13,33
5,Robert Ivanič,1998,106.3,Czechia,270,280,-290,,280,197.5,202.5,207.5,,207.5,270,280,-285,,280,767.5,SBD,Wraps,M,O,110,1998-04-27,24
DQ,Juraj Kačmárik,1985,107.3,Slovakia,300,320,-335,,320,170,180,-185,,180,-310,-310,-310,,,,SBD,Wraps,M,O,110,1985-03-25,37
1,Róbert Tumpek,1993,107.4,Hungary,325,-350,350,,350,175,182.5,-190,,182.5,327.5,345,350,,350,882.5,SBD,Wraps,M,O,110,1993-01-19,29
DQ,Dušan Jovanović,1992,108.4,Serbia,320,330,-337.5,,330,-207.5,,,,,,,,,,,SBD,Wraps,M,O,110,1992-09-30,30
4,Cédric Debonlier,1991,108.5,Switzerland,275,300,-305,,300,175,185,-190,,185,285,305,-310,,305,790,SBD,Wraps,M,O,110,1991-12-12,30
2,Andrej Katrenčík,1991,108.6,Slovakia,330,345,-355,,345,-190,190,-197.5,,190,325,345,-350,,345,880,SBD,Wraps,M,O,110,1991-11-04,30
3,Jack Grose-Freeman,1998,108.6,UK,260,285,300,,300,165,175,182.5,,182.5,270,300,310,,310,792.5,SBD,Wraps,M,O,110,1998-07-27,24
7,Péter Szabó,1992,109,Hungary,230,245,-255,,245,125,135,142.5,,142.5,215,230,240,,240,627.5,SBD,Wraps,M,O,110,1992-06-26,30
6,Leevi Leepajarvi,1993,109.4,Finland,235,250,255,,255,150,-160,-160,,150,250,-260,265,,265,670,SBD,Wraps,M,O,110,1993-10-21,28
2,Sebastian Pawlik,1992,113.1,Poland,320,-330,-330,,320,215,222.5,-227.5,,222.5,290,305,-315,,305,847.5,SBD,Wraps,M,O,125,1992-09-02,30
4,Árpád Tóth,1986,117.7,Hungary,250,-260,-260,,250,160,-170,-175,,160,260,270,280,,280,690,SBD,Wraps,M,O,125,1986-04-18,36
3,Renell Harding,1998,121.4,UK,-290,290,-310,,290,182.5,-192.5,-192.5,,182.5,290,300,310,,310,782.5,SBD,Wraps,M,O,125,1998-01-04,24
1,Michal Kadlec,1989,124,Czechia,320,-335,335,,335,215,225,235,,235,310,-330,-330,,310,880,SBD,Wraps,M,O,125,1989-06-26,33
6,Nikita Kraushuber,1997,124.2,Slovakia,210,220,-240,,220,125,135,142.5,,142.5,220,235,250,,250,612.5,SBD,Wraps,M,O,125,1997-02-23,25
5,Liam Goldie,1997,125,Scotland,-240,240,-255,,240,125,130,-137.5,,130,260,267.5,-272.5,,267.5,637.5,SBD,Wraps,M,O,125,1997-05-01,25
4,Jaroslav Horák,1994,128.5,Czechia,175,195,205,,205,130,140,150,,150,255,265,270,,270,625,SBD,Wraps,M,O,140,1994-09-27,28
1,Ján Kažimír,1998,130.2,Slovakia,280,-300,300,,300,200,-210,-210,,200,310,320,-330,,320,820,SBD,Wraps,M,O,140,1998-08-16,24
3,Fraser Love,1986,130.4,Scotland,260,-272.5,272.5,,272.5,150,157.5,-160,,157.5,245,-260,,,245,675,SBD,Wraps,M,O,140,1986-08-26,36
2,Frazer Lord,1995,136.5,Scotland,250,260,-270,,260,160,170,180,,180,280,300,315,,315,755,SBD,Wraps,M,O,140,1995-10-04,27
1,David Clarke #1,1988,150.6,Scotland,-305,305,,,305,190,200,205,,205,300,,,,300,810,SBD,Wraps,M,O,140+,1988-01-22,34
3,Tomáš Thüringer,1989,152,Slovakia,200,250,-272.5,,250,130,150,-160,,150,200,250,272.5,,272.5,672.5,SBD,Wraps,M,O,140+,1989-02-02,33
2,Nino Jelčić,1995,161,Czechia,260,270,280,,280,170,180,-185,,180,285,300,310,,310,770,SBD,Wraps,M,O,140+,1995-02-23,27
1,Daniel Šimončič,1997,58.6,Slovakia,120,125,130,,130,100,102.5,-105,,102.5,160,-165,-165,,160,392.5,SBD,Wraps,M,O,60,1997-03-28,25
2,Attila Horváth,1985,63.7,Hungary,120,-130,140,,140,100,-110,110,,110,140,155,170,,170,420,SBD,Wraps,M,O,67.5,1985-07-13,37
1,Jiří Lacina,1991,66.1,Czechia,150,160,170,,170,110,120,122.5,,122.5,190,215,225,,225,517.5,SBD,Wraps,M,O,67.5,1991-04-28,31
4,Martin Ürban,1991,73.3,Czechia,180,200,-210,,200,135,140,-145,,140,220,232.5,235,,235,575,SBD,Wraps,M,O,75,1991-04-11,31
5,František Tichý,1994,73.7,Czechia,-190,190,200,,200,130,135,140,,140,215,225,-235,,225,565,SBD,Wraps,M,O,75,1994-09-07,28
6,Peter Barlow,1995,73.9,UK,-180,-180,180,,180,110,117.5,-122.5,,117.5,220,235,245,,245,542.5,SBD,Wraps,M,O,75,1995-08-16,27
3,Renátó Béla Tóth,1993,74.2,Hungary,200,215,-220,,215,120,127.5,132.5,,132.5,235,250,-255,,250,597.5,SBD,Wraps,M,O,75,1993-11-18,28
2,Rory Porter,1991,74.4,UK,-220,-220,220,,220,132.5,140,142.5,,142.5,220,240,-260,,240,602.5,SBD,Wraps,M,O,75,1991-01-23,31
1,Rafał Struś,1992,75,Poland,225,235,242.5,,242.5,145,150,152.5,,152.5,210,220,227.5,,227.5,622.5,SBD,Wraps,M,O,75,1992-10-16,30
5,Fischer Sven,1995,80.1,Germany,175,-187.5,-187.5,,175,102.5,110,-117.5,,110,-200,220,-232.5,,220,505,SBD,Wraps,M,O,82.5,1995-01-11,27
4,Ján Babčan,1986,80.7,Slovakia,-215,220,-225,,220,140,152.5,-157.5,,152.5,220,235,240,,240,612.5,SBD,Wraps,M,O,82.5,1986-07-29,36
3,Patrik Tomáš,1996,81,Czechia,220,-240,240,,240,145,-155,-155,,145,257.5,-285,-285,,257.5,642.5,SBD,Wraps,M,O,82.5,1996-01-16,26
2,Jakub Dušek,1991,81,Czechia,240,260,-275,,260,120,140,-145,,140,240,-260,260,,260,660,SBD,Wraps,M,O,82.5,1991-01-04,31
1,Zdenko Bystrianský,1989,82.2,Slovakia,260,270,280,,280,150,157.5,162.5,,162.5,250,260,-270,,260,702.5,SBD,Wraps,M,O,82.5,1989-05-03,33
DQ,Tamás Barna,1992,84.8,Hungary,-270,270,-280,,270,-185,-195,-195,,,,,,,,,SBD,Wraps,M,O,90,1992-12-25,29
3,Hubert Przyblski,1998,85.8,Poland,250,275,-285,,275,150,162.5,-172.5,,162.5,260,285,300,,300,737.5,SBD,Wraps,M,O,90,1998-10-14,24
DQ,Konrad Kosiński,1985,87.3,Poland,,,,,,,,,,,,,,,,,SBD,Wraps,M,O,90,1985-02-26,37
5,Tavis Royer,1998,88.2,UK,215,235,250,,250,140,-150,150,,150,260,280,-300,,280,680,SBD,Raw,M,O,90,1998-03-14,24
DQ,Svetlozar Markov,1995,88.2,Bulgaria,-245,250,-270,,250,-200,-200,,,,,,,,,,SBD,Wraps,M,O,90,1995-05-31,27
6,Reed Tolley,1994,88.3,UK,205,217.5,222.5,,222.5,152.5,160,-165,,160,245,257.5,265,,265,647.5,SBD,Wraps,M,O,90,1994-10-11,28
2,Mariusz Marszalik,1995,88.4,Poland,280,300,320,,320,160,167.5,-175,,167.5,230,252.5,-265,,252.5,740,SBD,Wraps,M,O,90,1995-09-28,27
4,Alexander Globa,1993,88.4,Czechia,230,245,250,,250,-150,160,-165,,160,250,270,275,,275,685,SBD,Wraps,M,O,90,1993-11-14,28
1,Ján Špais,1995,88.5,Slovakia,260,-280,280,,280,-200,-200,200,211,200,280,-300,-300,,280,760,SBD,Wraps,M,O,90,1995-11-15,26
7,Filip Daněk,1998,89,Czechia,220,-240,,,220,140,-150,-160,,140,230,250,-260,,250,610,SBD,Wraps,M,O,90,1998-08-21,24
8,Ladislav Režňák,1989,93.4,Slovakia,230,250,-260,,250,135,140,-145,,140,240,260,-265,,260,650,SBD,Wraps,M,O,100,1989-03-24,33
6,Zdeněk Marvan,1997,97.3,Czechia,235,250,270,,270,180,190,200,,200,240,260,280,,280,750,SBD,Wraps,M,O,100,1997-07-17,25
2,Viktor Al-Hamid,1989,97.3,Czechia,315,335,-360,-360,335,175,190,200,,200,260,290,-300,,290,825,SBD,Wraps,M,O,100,1989-12-21,32
9,Márton Budai,1996,97.4,Hungary,220,237.5,250,,250,150,-162.5,-162.5,,150,240,-257.5,-262.5,,240,640,SBD,Wraps,M,O,100,1996-08-07,26
4,Jože Šinkovec,1998,97.9,Slovenia,-310,310,-327.5,,310,175,185,-190,,185,250,270,,,270,765,SBD,Wraps,M,O,100,1998-02-15,24
3,Milán Apaceller,1993,98.6,Hungary,280,300,305,,305,180,185,190,,190,292.5,305,-310,,305,800,SBD,Wraps,M,O,100,1993-10-22,28
10,Bojan Teljak,1993,98.9,Slovenia,200,215,-222.5,,215,-160,160,-165,,160,225,235,250,,250,625,SBD,Wraps,M,O,100,1993-10-01,29
5,Tomáš Hovorka,1998,99.5,Czechia,275,-290,-290,,275,185,-195,-195,,185,285,300,-315,,300,760,SBD,Wraps,M,O,100,1998-09-04,24
1,Reece Meakin,1990,99.5,UK,305,-325,330,,330,-205,205,-215,,205,285,300,310,,310,845,SBD,Wraps,M,O,100,1990-08-20,32
3,Ondřej Štěpán,1999,101.6,Czechia,250,-270,270,,270,135,145,-155,,145,265,275,-285,,275,690,SBD,Wraps,M,J,110,1999-06-28,23
4,Erik Krajčírik,2001,105.9,Slovakia,180,-190,-195,,180,140,150,-155,,150,200,210,220,,220,550,SBD,Wraps,M,J,110,2001-02-12,21
1,Adam Egermaier,2000,108.2,Czechia,230,250,265,,265,155,165,170,,170,250,270,280,,280,715,SBD,Wraps,M,J,110,2000-08-16,22
2,Bohdan Mykhalyk,2000,109.8,Latvia,-260,260,-275,,260,145,-152.5,,,145,280,300,-312.5,,300,705,SBD,Wraps,M,J,110,2000-03-02,22
5,Kacper Inglot,2002,114.5,Poland,-200,200,-215,,200,110,117.5,122.5,,122.5,205,-212.5,-212.5,,205,527.5,SBD,Wraps,M,J,125,2002-06-12,20
3,George Kolar,2000,114.6,UK,320,340,350,,350,190,200,205,,205,305,317.5,-320,,317.5,872.5,SBD,Wraps,M,J,125,2000-10-30,21
4,Márk Kiss,1999,115.2,Hungary,270,277.5,-285,,277.5,170,-180,-180,,170,295,-305,-305,,295,742.5,SBD,Wraps,M,J,125,1999-01-26,23
1,János Tar,1998,121.1,Hungary,345,370,385,-390,385,177.5,185,192.5,,192.5,340,360,-372.5,,360,937.5,SBD,Wraps,M,J,125,1998-12-25,23
2,Martin Medvedyk,1999,123.8,Czechia,-350,350,380,,380,160,170,175,,175,285,300,320,,320,875,SBD,Wraps,M,J,125,1999-05-23,23
1,Tomáš Komjaty,2001,147.1,Slovakia,275,300,315,,315,200,215,-225,,215,275,300,-315,,300,830,SBD,Wraps,M,J,140+,2001-10-02,21
2,Sándor Varjú,2000,148.3,Hungary,275,292.5,-310,,292.5,170,177.5,185,,185,230,245,-255,,245,722.5,SBD,Wraps,M,J,140+,2000-03-03,22
DQ,Lukáš Pepř,1999,183.5,Czechia,360,-380,-380,,360,250,-260,-260,,250,,,,,,,SBD,Wraps,M,J,140+,1999-04-12,23
2,Lukács Dömény,2001,66.7,Slovakia,-190,190,-203.5,,190,80,90,95,,95,180,200,-217.5,,200,485,SBD,Wraps,M,J,67.5,2001-04-25,21
1,Ryan Morgan #1,1999,66.9,UK,165,177.5,185,,185,110,117.5,-122.5,,117.5,200,-215,-215,,200,502.5,SBD,Wraps,M,J,67.5,1999-07-23,23
1,Máté Kiss #1,1999,70.4,Hungary,190,205,212.5,,212.5,105,112.5,117.5,,117.5,240,252.5,-272.5,,252.5,582.5,SBD,Wraps,M,J,75,1999-07-07,23
2,Adam Keřlík,2001,73.5,Czechia,180,200,220,,220,115,122.5,125,,125,210,230,-247.5,,230,575,SBD,Wraps,M,J,75,2001-09-01,21
3,Dominik Bílý,2001,73.8,Czechia,215,-220,220,,220,125,130,-132.5,,130,200,210,215,,215,565,SBD,Wraps,M,J,75,2001-06-05,21
4,Ben Phillips #1,2000,74.7,UK,180,-200,200,,200,110,115,-120,,115,210,230,-235,,230,545,SBD,Wraps,M,J,75,2000-09-18,22
4,Matyáš Šenkýř,1999,80,Czechia,180,190,-200,,190,120,130,137.5,,137.5,190,200,210,,210,537.5,SBD,Wraps,M,J,82.5,1999-06-21,23
1,Oliver Kurek,1999,81.5,Slovakia,-280,-280,280,,280,165,170,175,,175,310,-330,-330,,310,765,SBD,Wraps,M,J,82.5,1999-03-21,23
5,Štefan Lehocký,2001,82.1,Slovakia,190,205,210,,210,100,-107.5,-107.5,,100,190,205,-215,,205,515,SBD,Wraps,M,J,82.5,2001-09-20,21
3,Jan Cafourek,2002,82.3,Czechia,220,-230,,,220,130,-140,,,130,65,220,250,,250,600,SBD,Wraps,M,J,82.5,2002-07-17,20
2,Emil Karejalainen,1999,82.4,Finland,240,255,-270,,255,150,160,-165,,160,250,260,270,,270,685,SBD,Wraps,M,J,82.5,1999-03-14,23
4,Roman Kövári,1998,86.6,Slovakia,180,200,220,,220,130,140,-145,,140,270,-300,-320,,270,630,SBD,Wraps,M,J,90,1998-12-21,23
2,Gábor Somogyi,2000,88.3,Hungary,265,-282.5,-282.5,,265,165,-170,170,,170,300,310,-315,,310,745,SBD,Wraps,M,J,90,2000-05-09,22
1,Filip Rotter,1999,88.8,Czechia,260,-290,-305,,260,155,165,170,,170,305,320,-325,,320,750,SBD,Wraps,M,J,90,1999-08-27,23
6,Kristián Matejovie,1999,89.1,Slovakia,165,175,190,,190,105,110,-115,,110,200,-215,235,,235,535,SBD,Wraps,M,J,90,1999-12-03,22
5,Oldřich Janoušek,1999,89.8,Czechia,185,205,227.5,,227.5,135,150,-160,,150,200,227.5,240,,240,617.5,SBD,Wraps,M,J,90,1999-04-03,23
3,Michal Sorát,2000,89.9,Slovakia,220,240,250,,250,135,142.5,-147.5,,142.5,310,-330.5,330.5,340,330.5,723,SBD,Wraps,M,J,90,2000-05-02,22
3,Krisztián József Horváth,2002,94.3,Hungary,260,270,280,,280,135,145,-150,,145,260,-275,-275,,260,685,SBD,Wraps,M,J,100,2002-09-03,20
2,Miklós Kelemen,2000,97,Hungary,245,265,280,,280,160,172.5,180,,180,255,280,305,,305,765,SBD,Wraps,M,J,100,2000-05-04,22
1,Matěj Syrovátka,1998,97.7,Czechia,290,-310,320,,320,200,210,-220,,210,300,320,-332.5,,320,850,SBD,Wraps,M,J,100,1998-10-28,23
3,Mikko Korpeinen,1980,104.1,Finland,230,250,-270,,250,-135,135,140,,140,280,300,-310,,300,690,SBD,Wraps,M,M1,110,1980-12-17,41
1,Eben van Wyk,1981,107,Scotland,245,265,285,,285,170,177.5,185,,185,300,320,-335.5,,320,790,SBD,Wraps,M,M1,110,1981-04-01,41
2,Matthew Fealey,1980,108.2,UK,250,280,290,,290,-175,182.5,-190,,182.5,270,290,-302.5,,290,762.5,SBD,Wraps,M,M1,110,1980-06-17,42
1,John Nelson #1,1982,119.6,Scotland,-210,210,220,,220,175,180,-185,,180,240,255,-267.5,,255,655,SBD,Wraps,M,M1,125,1982-04-17,40
1,Andrew Cairney,1979,128.4,Scotland,330,-350,-350,,330,140,-150,-155,,140,300,321,,,321,791,SBD,Wraps,M,M1,140,1979-07-09,43
1,Michal Móry,1978,74.1,Slovakia,180,-192.5,-205,,180,107.5,112.5,115,,115,165,185,,,185,480,SBD,Wraps,M,M1,75,1978-09-13,44
1,Mateusz Dziura,1980,98.3,Poland,245,265,275,,275,145,155,160,,160,250,265,277.5,,277.5,712.5,SBD,Wraps,M,M1,100,1980-07-09,42
4,Matthew Jack,1981,98.9,UK,230,242.5,-247.5,,242.5,147.5,152.5,-157.5,,152.5,250,262.5,-280,,262.5,657.5,SBD,Wraps,M,M1,100,1981-08-25,41
2,Antal Tábor,1979,99.7,Hungary,250,260,265,,265,160,-170,175,,175,250,262.5,-275,,262.5,702.5,SBD,Wraps,M,M1,100,1979-06-04,43
3,Marek Pavkov,1982,99.9,Slovakia,-260,260,-275,,260,140,155,165,,165,230,240,250,,250,675,SBD,Wraps,M,M1,100,1982-02-26,40
1,Pavel Kolibár,1974,102.8,Slovakia,160,170,-180,,170,-130,135,140,,140,195,205,212.5,,212.5,522.5,SBD,Wraps,M,M2,110,1974-06-01,48
1,Zsolt Antal,1975,115.8,Hungary,290,310,,,310,185,195,200,,200,295,310,315,,315,825,SBD,Wraps,M,M2,125,1975-08-27,47
2,Ľubomír Majstrák,1974,116.2,Slovakia,110,125,140,,140,50,60,70,,70,110,125,140,,140,350,SBD,Wraps,M,M2,125,1974-03-31,48
DQ,Jiří Sucharda,1974,132.1,Czechia,210,235,,,235,-150,-150,-150,,,,,,,,,SBD,Wraps,M,M2,140,1974-12-29,47
2,Arkadiusz Tatarczak,1976,72.7,Poland,-165,165,-180,,165,90,95,100,,100,180,190,200,,200,465,SBD,Wraps,M,M2,75,1976-01-14,46
1,Erni Gregorčič,1976,72.8,Slovenia,200,210,220,,220,140,-145,145,,145,241,-251,251,,251,616,SBD,Wraps,M,M2,75,1976-06-04,46
2,Pavel Vechter,1976,79,Slovakia,185,195,-200,,195,140,145,-150,,145,210,222.5,230,,230,570,SBD,Wraps,M,M2,82.5,1976-08-16,46
1,Anton Frič,1973,82.1,Slovakia,240,257.5,265,,265,150,160,165,,165,240,-255,,,240,670,SBD,Wraps,M,M2,82.5,1973-02-01,49
1,Daniel Cieplak,1973,88.8,Poland,-220,-230,230,,230,152.5,157.5,160,,160,215,230,-235,,230,620,SBD,Wraps,M,M2,90,1973-10-20,48
1,Matthew Nicholls,1977,97.5,UK,280,-300,300,,300,150,160,165,,165,270,-290,-290,,270,735,SBD,Wraps,M,M2,100,1977-06-20,45
1,Tibor Pukáč,1971,101.6,Slovakia,-225,235,245,,245,160,167.5,-172.5,,167.5,235,245,250,,250,662.5,SBD,Wraps,M,M3,110,1971-02-28,51
1,Hagen Ribb,1970,111.7,Germany,180,205,220,,220,130,142.5,152.5,,152.5,180,205,222.5,,222.5,595,SBD,Wraps,M,M3,125,1970-06-03,52
2,Louis Kuhn,1970,123.7,Scotland,-130,130,135,,135,130,140,-142.5,,140,-190,190,195,,195,470,SBD,Wraps,M,M3,125,1970-03-19,52
2,Roman Mandík,1968,73.9,Czechia,130,140,150,,150,95,-100,100,,100,165,175,-180,,175,425,SBD,Wraps,M,M3,75,1968-10-04,54
1,Rory May,1967,74.2,Scotland,155,170,-185,,170,100,107.5,112.5,,112.5,170,185,195,,195,477.5,SBD,Wraps,M,M3,75,1967-10-31,54
1,Michael Schmidt,1970,79.5,Germany,210,230,-245,,230,140,150,-155,,150,230,240,-250,,240,620,SBD,Wraps,M,M3,82.5,1970-02-02,52
1,Peter Lehocký,1972,87.2,Slovakia,220,235,245,,245,155,165,167.5,,167.5,-250,257.5,275,,275,687.5,SBD,Wraps,M,M3,90,1972-03-05,50
1,Darren Walker,1968,97.2,UK,225,245,-255,,245,145,155,162.5,,162.5,265,285,292.5,-300.5,292.5,700,SBD,Wraps,M,M3,100,1968-06-16,54
3,Stephen Davies #1,1966,105.6,UK,215,235,-245,,235,140,147.5,-152.5,,147.5,220,240,250,,250,632.5,SBD,Wraps,M,M4,110,1966-07-06,56
4,Richie Penkert,1963,105.8,Ireland,-205,205,-235,,205,125,132.5,,,132.5,70,,,,70,407.5,SBD,Wraps,M,M4,110,1963-09-09,59
2,Andrew Flavell,1966,107.7,Scotland,235,245,250,,250,140,147.5,-152.5,,147.5,240,250,-262.5,,250,647.5,SBD,Wraps,M,M4,110,1966-11-12,55
1,František Nováček,1964,109.9,Czechia,215,225,232.5,,232.5,180,-185,185,,185,235,247.5,257.5,,257.5,675,SBD,Wraps,M,M4,110,1964-12-14,57
1,Robert Caldwell,1966,114.3,Scotland,-230,230,-240,,230,150,160,,,160,240,250,260,,260,650,SBD,Wraps,M,M4,125,1966-05-01,56
2,Zdeno Pupiš,1964,80.5,Slovakia,-120,120,130,,130,90,-100,-100,,90,160,170,180,,180,400,SBD,Wraps,M,M4,82.5,1964-04-17,58
1,István Gyuricska Jr,1967,82,Hungary,175,-195,-200,,175,140,150,-155,,150,180,200,-210,,200,525,SBD,Wraps,M,M4,82.5,1967-10-06,55
1,Vladimír Gosin,1965,93.5,Israel,240,250,-260,,250,155,165,170,,170,275,285,,,285,705,SBD,Wraps,M,M4,100,1965-06-06,57
1,Dainis Polis,1959,103.6,Latvia,150,,,,150,125,-135,,,125,180,200,,,200,475,SBD,Wraps,M,M5,110,1959-10-20,62
DQ,František Makranský,1961,120.7,Slovakia,-232.5,-232.5,,,,,,,,,,,,,,,SBD,Wraps,M,M5,125,1961-11-27,60
1,Tibor Zvada,1958,80,Slovakia,100,-115,-115,,100,70,75,-80,,75,-140,140,,,140,315,SBD,Wraps,M,M5,82.5,1958-04-26,64
1,Petr Nosek,1959,89.4,Czechia,120,130,135,,135,85,95,-97.5,,95,150,155,160,,160,390,SBD,Wraps,M,M5,90,1959-01-04,63
1,Juhani Kärkkäinen,1959,97.8,Finland,-185,-190,190,,190,135,140,-145,,140,225,240,250,,250,580,SBD,Wraps,M,M5,100,1959-10-17,63
1,Jaroslav Šolc,1957,109.5,Slovakia,205,215,225,,225,-150,150,160,-170,160,205,215,222.5,,222.5,607.5,SBD,Wraps,M,M6,110,1957-03-02,65
1,Olavi Rintanen,1955,113.7,Finland,-210,210,,,210,90,100,110,,110,250,,,,250,570,SBD,Wraps,M,M6,125,1955-05-23,67
1,Jozef Gabrhel,1955,73.3,Slovakia,125,135,140,,140,90,95,100,,100,155,165,170,,170,410,SBD,Wraps,M,M6,75,1955-12-23,66
1,Mieczysłąw Maczka,1954,84.3,Germany,120,137.5,,,137.5,90,97.5,,,97.5,130,145,,,145,380,SBD,Wraps,M,M6,90,1954-09-11,68
DQ,Serafim Rocha,1948,103.9,Brazil,-60,-70,-70,,,,,,,,,,,,,,SBD,Wraps,M,M7,110,1948-04-27,74
1,Hynek Stružka,1951,115.7,Czechia,120,133,140,,140,-110,110,120,,120,150,170.5,,,170.5,430.5,SBD,Wraps,M,M7,125,1951-12-05,70
1,Valentin Mashkovitch,1952,51.5,Israel,100,110,,,110,60,-65,-65,,60,130,140,-145,,140,310,SBD,Wraps,M,M7,56,1952-01-01,70
1,Boris Laishin,1950,70.8,Israel,-100,100,110,,110,105,-110,-110,,105,152.5,162.5,165,,165,380,SBD,Wraps,M,M7,75,1950-08-06,72
1,Adam Jasiński,1951,78.3,Poland,190,200,207.5,,207.5,-80,80,87.5,,87.5,185,187.5,195,,195,490,SBD,Wraps,M,M7,82.5,1951-01-15,71
1,Józef Bejgrowicz,1952,82.6,Poland,150,160,,,160,-75,75,,,75,210,220,-227.5,,220,455,SBD,Wraps,M,M7,90,1952-09-24,70
2,Vladimír Svoboda,1952,92,Czechia,130,135,140,,140,85,92.5,97.5,,97.5,140,150,155,,155,392.5,SBD,Wraps,M,M7,100,1952-08-12,70
1,Raimo Lehtimäki,1949,94.8,Finland,140,-150,-150,,140,72.5,77.5,82.5,,82.5,192.5,205,-212.5,,205,427.5,SBD,Wraps,M,M7,100,1949-12-08,72
3,Jozef Meravý,1950,95,Slovakia,80,115,-130,,115,70,80,-90,,80,130,-150,150,,150,345,SBD,Wraps,M,M7,100,1950-04-20,72
1,Jozef Bartek,1945,75.9,Slovakia,-50,-55,60,,60,55,-57.5,57.5,,57.5,80,90,100,,100,217.5,SBD,Wraps,M,M8,82.5,1945-03-06,77
2,Stella Širmerová,1999,47.6,Czechia,-70,-70,70,,70,45,-47.5,-47.5,,45,115,120,-125,,120,235,SBD,Wraps,F,J,48,1999-07-10,23
2,Irina Pomerantsev,1970,43.3,Israel,50,55,60,,60,55,-57.5,57.5,,57.5,75,80,82.5,,82.5,200,SBD,Wraps,F,M3,44,1970-06-08,52
1,Darren Bennett,1984,107.9,Ireland,250,280,,,280,225,-235,,,225,270,290,300,,300,805,SBD,Multi-ply,M,O,110,1984-07-27,38
1,Adam Sobek,1995,112.2,Slovakia,260,280,-300,,280,200,212.5,-220,,212.5,270,295,-300,,295,787.5,SBD,Multi-ply,M,O,125,1995-08-10,27
1,Edgars Peterlēvics,1986,86.9,Latvia,280,-290,-300,,280,260,267.5,270,,270,250,257.5,-262.5,,257.5,807.5,SBD,Multi-ply,M,O,90,1986-09-29,36
1,Tomáš Kunz,2002,63.9,Czechia,-180,180,-202.5,,180,100,107.5,,,107.5,150,-170,-170,,150,437.5,SBD,Multi-ply,M,J,67.5,2002-05-16,20
1,Eugenijus Cibulskis,1975,103.1,Lithuania,210,230,240,,240,155,165,170,,170,205,220,-230,,220,630,SBD,Multi-ply,M,M2,110,1975-05-31,47
1,András Csiszár,1973,82.5,Hungary,220,240,260,,260,160,170,180,,180,220,230,240,,240,680,SBD,Multi-ply,M,M2,82.5,1973-03-15,49
DQ,Radosav Radusinović,1968,123.7,Croatia,340,355,365,,365,-240,-240,-240,,,,,,,,,SBD,Multi-ply,M,M3,125,1968-08-13,54
1,Andrew Saunders,1967,106.6,UK,65,,,,65,210,,,,210,65,,,,65,340,SBD,Multi-ply,M,M4,110,1967-07-29,55
1,Karol Brečka,1961,77.1,Czechia,200,210.5,217.5,,217.5,120,130,-135,,130,205,215,225,,225,572.5,SBD,Multi-ply,M,M5,82.5,1961-04-16,61
2,Mieczysłąw Maczka,1954,83.3,Germany,120,135,,,135,90,,,,90,130,,,,130,355,SBD,Multi-ply,M,M6,90,1954-09-11,68
1,Stanislav Hoza,1956,85.8,Czechia,220,230,-240,,230,160,165,-167.5,,165,190,205,215,,215,610,SBD,Multi-ply,M,M6,90,1956-01-22,66
1,Libor Hurdálek,1954,97.6,Czechia,200,222.5,-230,,222.5,160,-172.5,-172.5,,160,170,185,-200.5,,185,567.5,SBD,Multi-ply,M,M6,100,1954-08-05,68
1,David Rex Thomas,1951,110.6,UK,145,155,,,155,75,-103,,,75,150,161,,,161,391,SBD,Multi-ply,M,M7,125,1951-07-12,71
1,Natalia Szpila,2005,54.2,Poland,,,,,,,,,,,100,110,-115,,110,110,D,Raw,F,T2,56,2005-07-21,17
1,Lili Tekla Vadasz,2006,74.3,Hungary,,,,,,,,,,,110,120,125,,125,125,D,Raw,F,T2,75,2006-01-16,16
1,Nikol Lenghartová,2006,81.6,Slovakia,,,,,,,,,,,120,-130.5,130.5,137.5,130.5,130.5,D,Raw,F,T2,82.5,2006-02-13,16
1,Noémi Magura,2006,82.8,Hungary,,,,,,,,,,,110,117.5,125,127.5,125,125,D,Raw,F,T2,90,2006-03-09,16
1,Ema Mišovčíková,2003,54.1,Slovakia,,,,,,,,,,,150,-160,-162.5,,150,150,D,Raw,F,T3,56,2003-07-21,19
1,Odett Bernadett Becz,2003,68.4,Hungary,,,,,,,,,,,170,200,220,,220,220,D,Raw,F,T3,75,2003-02-02,19
2,Sára Lemesányiová,2002,74.1,Slovakia,,,,,,,,,,,120,130,-135,,130,130,D,Raw,F,T3,75,2002-11-27,19
1,Tereza Šimková,2004,77.9,Czechia,,,,,,,,,,,130,140,145.5,152.5,145.5,145.5,D,Raw,F,T3,82.5,2004-02-03,18
1,Laura Kiss,2004,82.8,Hungary,,,,,,,,,,,160,170,180,-190,180,180,D,Raw,F,T3,90,2004-06-07,18
2,Petra Szőcs,2004,87.3,Hungary,,,,,,,,,,,125,135,-140,,135,135,D,Raw,F,T3,90,2004-09-22,18
1,Ilka Németh,2004,110.1,Hungary,,,,,,,,,,,120,130,140,,140,140,D,Raw,F,T3,110+,2004-10-10,18
2,Martyna Dubij,1999,50.5,Poland,,,,,,,,,,,95,100,-105,,100,100,D,Raw,F,J,52,1999-05-14,23
1,Magdalena Szpila,2002,50.6,Poland,,,,,,,,,,,120,127.5,131,,131,131,D,Raw,F,J,52,2002-03-06,20
3,Karolina Dubij,2002,57.7,Poland,,,,,,,,,,,80,90,100,,100,100,D,Raw,F,J,60,2002-02-12,20
2,Simona Rančev,2002,58.4,Czechia,,,,,,,,,,,110,-115,115,,115,115,D,Raw,F,J,60,2002-02-28,20
1,Ela Kardaś,1999,59.1,Poland,,,,,,,,,,,115,125,-135,,125,125,D,Raw,F,J,60,1999-12-16,22
1,Alexandra Hubinská,2000,63.8,Slovakia,,,,,,,,,,,145,155,-165.5,-165.5,155,155,D,Raw,F,J,67.5,2000-09-20,22
1,Janka Kajdi,2000,78.4,Hungary,,,,,,,,,,,110,120,130,,130,130,D,Raw,F,J,82.5,2000-09-20,22
1,Rebeka Makkai,2001,129.6,Hungary,,,,,,,,,,,100,120,130,137.5,130,130,D,Raw,F,J,110+,2001-02-08,21
1,Kinga Kecskeméti,1989,46.3,Hungary,,,,,,,,,,,122.5,127.5,-132.5,,127.5,127.5,D,Raw,F,O,48,1989-03-20,33
3,Radoslava Tóth,1988,47.1,Slovakia,,,,,,,,,,,105,110,112.5,,112.5,112.5,D,Raw,F,O,48,1988-06-13,34
2,Petra Kubicová,1988,47.2,Slovakia,,,,,,,,,,,105,110,115,,115,115,D,Raw,F,O,48,1988-08-19,34
1,Eva Strnadová,1983,52,Czechia,,,,,,,,,,,100,110,117.5,,117.5,117.5,D,Raw,F,O,52,1983-07-11,39
2,Sylvia Schmidt,1983,53.2,Germany,,,,,,,,,,,-95,95,-100,,95,95,D,Raw,F,O,56,1983-09-06,39
1,Cintia Csordás,1995,56,Hungary,,,,,,,,,,,145,150,152,-155,152,152,D,Raw,F,O,56,1995-07-19,27
1,Eva Padová,1990,59.7,Slovakia,,,,,,,,,,,85,95,105,,105,105,D,Raw,F,O,60,1990-02-01,32
3,Paulina Pracownik,1990,64,Poland,,,,,,,,,,,122.5,-130,-135,,122.5,122.5,D,Raw,F,O,67.5,1990-05-27,32
4,Viktória Váczyová,1997,64.5,Slovakia,,,,,,,,,,,110,-120,-125,,110,110,D,Raw,F,O,67.5,1997-12-17,24
DQ,Andrea Benešová,1992,66,Czechia,,,,,,,,,,,-120,-130,-137.5,,,,D,Raw,F,O,67.5,1992-01-07,30
1,Tinna Pallsdottir,1987,66.6,Iceland,,,,,,,,,,,180,190,-200,-218,190,190,D,Raw,F,O,67.5,1987-07-15,35
2,Dóra Balogh,1994,66.8,Hungary,,,,,,,,,,,130,135,-137.5,,135,135,D,Raw,F,O,67.5,1994-12-30,27
2,Veronika Strolená,1985,69.8,Czechia,,,,,,,,,,,-140,140,150,,150,150,D,Raw,F,O,75,1985-06-22,37
1,Lenka Karabová,1997,75,Slovakia,,,,,,,,,,,140,152.5,160,,160,160,D,Raw,F,O,75,1997-05-18,25
1,Marcela Támarová,1986,79.2,Slovakia,,,,,,,,,,,150,160,-170,,160,160,D,Raw,F,O,82.5,1986-10-05,36
2,Renata Zapała,1994,81.5,Poland,,,,,,,,,,,110,120,130,,130,130,D,Raw,F,O,82.5,1994-07-28,28
1,Jana Vašková,1994,86.5,Slovakia,,,,,,,,,,,230,251,-255,,251,251,D,Raw,F,O,90,1994-04-15,28
2,Kateřina Švecová,1989,99.3,Czechia,,,,,,,,,,,160,170,180,,180,180,D,Raw,F,O,110,1989-07-10,33
1,Laura Blanka Csánicz,1998,102.7,Hungary,,,,,,,,,,,162.5,172.5,182.5,,182.5,182.5,D,Raw,F,O,110,1998-10-07,24
1,Lenka Buchtová,1995,117.5,Slovakia,,,,,,,,,,,160,-175,175,,175,175,D,Raw,F,O,110+,1995-12-05,26
2,Sabrina Brandt,1983,120.1,Germany,,,,,,,,,,,145,-152.5,-155,,145,145,D,Raw,F,O,110+,1983-08-13,39
1,Grazielle Silva,1982,55.9,Brazil,,,,,,,,,,,180,192.5,-200,,192.5,192.5,D,Raw,F,M1,56,1982-02-14,40
1,Eszter Csonka,1977,58.9,Hungary,,,,,,,,,,,115,-117.5,-125,,115,115,D,Raw,F,M1,60,1977-12-25,44
1,Szabina Erdei,1980,67.3,Hungary,,,,,,,,,,,185,-195,195,-205,195,195,D,Raw,F,M1,67.5,1980-02-27,42
1,Ilona Simon,1979,79.1,Hungary,,,,,,,,,,,170,180,-190,,180,180,D,Raw,F,M1,82.5,1979-02-05,43
2,Sabina Oleksy,1981,80.7,Poland,,,,,,,,,,,120,135,-140,,135,135,D,Raw,F,M1,82.5,1981-06-27,41
1,Almira Lizde,1982,86.9,Bosnia and Herzegovina,,,,,,,,,,,220,230,240,245,240,240,D,Raw,F,M1,90,1982-07-04,40
1,Anita Melinda Danicser,1979,90.8,Hungary,,,,,,,,,,,150,160,-170,,160,160,D,Raw,F,M1,110,1979-05-21,43
1,Kati Györökné,1973,55.1,Hungary,,,,,,,,,,,100,110,-120,,110,110,D,Raw,F,M2,56,1973-11-02,48
1,Daniela Poláková,1976,59,Czechia,,,,,,,,,,,140,150,160.5,,160.5,160.5,D,Raw,F,M2,60,1976-08-13,46
1,Klaudia Tanczos,1973,73.5,Slovakia,,,,,,,,,,,97.5,-100,-100,,97.5,97.5,D,Raw,F,M2,75,1973-09-28,49
1,Mónika Bazsó,1974,75.4,Hungary,,,,,,,,,,,180,190,200,-205.5,200,200,D,Raw,F,M2,82.5,1974-02-01,48
1,Szilvia Ágnes Juhász-Ilyés,1976,87.4,Hungary,,,,,,,,,,,120,-131,-131,131,120,120,D,Raw,F,M2,90,1976-04-08,46
2,Melinda Ildikó Derdák,1975,93.2,Hungary,,,,,,,,,,,115,125,135,,135,135,D,Raw,F,M2,110,1975-01-02,47
1,Micheletti Gislaine Dias,1977,105,Brazil,,,,,,,,,,,220,235,-250,,235,235,D,Raw,F,M2,110,1977-07-08,45
1,Ester Cichá,1970,55,Czechia,,,,,,,,,,,115,120,-123,-123,120,120,D,Raw,F,M3,56,1970-02-25,52
1,Anikó Csonka,1968,61.3,Hungary,,,,,,,,,,,130,145,152.5,,152.5,152.5,D,Raw,F,M3,67.5,1968-04-27,54
1,Leena Stålstedt,1968,75.5,Finland,,,,,,,,,,,110,125,135,,135,135,D,Raw,F,M3,82.5,1968-06-24,54
1,Ana Catia Portilho Couto,1966,67.1,Brazil,,,,,,,,,,,135,140,145,148,145,145,D,Raw,F,M4,67.5,1966-10-21,
1,Puzio Krystyna Abramczyk,1965,103.6,Poland,,,,,,,,,,,160,170,-180,,170,170,D,Raw,F,M4,110,1965-04-23,57
3,Brigitte Maczka,1961,69.3,Germany,,,,,,,,,,,95,102.5,,,102.5,102.5,D,Raw,F,M5,75,1961-10-05,61
1,Christine Henwood,1958,72.8,New Zealand,,,,,,,,,,,-175,175,185,,185,185,D,Raw,F,M5,75,1958-04-26,64
2,Katarína Zajková,1961,73.5,Slovakia,,,,,,,,,,,135,145,-152.5,,145,145,D,Raw,F,M5,75,1961-07-18,61
1,Dana Bešková,1954,55.4,Czechia,,,,,,,,,,,70,75,77.5,,77.5,77.5,D,Raw,F,M6,56,1954-09-29,68
1,Lydie Pons,1950,66,France,,,,,,,,,,,95,102.5,112.5,115,112.5,112.5,D,Raw,F,M7,67.5,1950-11-22,71
3,Daniel Pianka,2008,39.6,Czechia,,,,,,,,,,,70,80,90,,90,90,D,Raw,M,T1,56,2008-12-02,13
2,Štěpán Král,2008,49,Czechia,,,,,,,,,,,100,110,-120,,110,110,D,Raw,M,T1,56,2008-06-09,14
1,Martin Balla,2008,54.8,Slovakia,,,,,,,,,,,130,-135,-135,,130,130,D,Raw,M,T1,56,2008-03-30,14
1,Lubomír Fábry,2008,94.1,Slovakia,,,,,,,,,,,140,155,170,,170,170,D,Raw,M,T1,100,2008-11-04,13
1,Dávid Simon,2005,67.2,Hungary,,,,,,,,,,,140,160,-175,,160,160,D,Raw,M,T2,67.5,2005-01-01,17
2,Dominik Dzimba,2005,71.3,Hungary,,,,,,,,,,,200,-210,-222.5,,200,200,D,Raw,M,T2,75,2005-03-17,17
1,Vojtěch Štegner,2006,75,Czechia,,,,,,,,,,,205,215,222.5,,222.5,222.5,D,Raw,M,T2,75,2006-05-29,16
1,Sebastian Tušinovský,2006,79.8,Slovakia,,,,,,,,,,,200,210,-215,,210,210,D,Raw,M,T2,82.5,2006-03-14,16
1,Jakub Jarończyk,2005,84.6,Poland,,,,,,,,,,,180,190,-195,,190,190,D,Raw,M,T2,90,2005-10-24,16
1,Andrej Kukura,2005,93.3,Slovakia,,,,,,,,,,,200,210,215,,215,215,D,Raw,M,T2,100,2005-03-19,17
2,Ferenc Arnold Susznyak,2005,98.2,Hungary,,,,,,,,,,,150,160,170,,170,170,D,Raw,M,T2,100,2005-05-30,17
1,Jakub Fiala,2005,127.1,Czechia,,,,,,,,,,,200,210,-215,,210,210,D,Raw,M,T2,140,2005-11-19,16
2,František Mráček,2004,127.5,Czechia,,,,,,,,,,,190,205,-210,,205,205,D,Raw,M,T2,140,2004-11-29,17
1,Tomáš Parížek,2004,56.5,Slovakia,,,,,,,,,,,165,170,175,,175,175,D,Raw,M,T3,60,2004-09-10,18
2,Radosław Bober,2004,63.5,Poland,,,,,,,,,,,150,160,-165,,160,160,D,Raw,M,T3,67.5,2004-01-28,18
1,Máté Kiss #2,2003,65.8,Hungary,,,,,,,,,,,205.5,215,-222,-222,215,215,D,Raw,M,T3,67.5,2003-02-02,19
2,Daniel Rychtařík,2003,73.2,Czechia,,,,,,,,,,,200,220,-232.5,,220,220,D,Raw,M,T3,75,2003-07-01,19
1,Martin Chudoba,2002,73.8,Czechia,,,,,,,,,,,215,230,232.5,,232.5,232.5,D,Raw,M,T3,75,2002-11-02,19
1,Marián Kamenský,2003,78.8,Slovakia,,,,,,,,,,,200,220,-230,,220,220,D,Raw,M,T3,82.5,2003-10-08,19
1,Aleš Keřlík,2002,86.2,Czechia,,,,,,,,,,,270,-290,-290,,270,270,D,Raw,M,T3,90,2002-10-25,19
1,David Krmášek,2004,95.4,Czechia,,,,,,,,,,,230,247.5,260,,260,260,D,Raw,M,T3,100,2004-10-04,18
2,Matěj Bělina,2003,96.6,Czechia,,,,,,,,,,,220,240,-250,,240,240,D,Raw,M,T3,100,2003-05-17,19
1,Denis Jarma,1999,59.2,Czechia,,,,,,,,,,,215,-232.5,-232.5,-232.5,215,215,D,Raw,M,J,60,1999-03-09,23
2,Peter Chrápek,2001,59.4,Slovakia,,,,,,,,,,,150,170,-180,,170,170,D,Raw,M,J,60,2001-01-17,21
1,Marian Karcol,2000,60.5,Slovakia,,,,,,,,,,,-130,130,145,,145,145,D,Raw,M,J,67.5,2000-02-16,22
1,Josef Chaloupka,2001,73.8,Czechia,,,,,,,,,,,205,220,230,,230,230,D,Raw,M,J,75,2001-10-29,20
2,Marek Olejár,2000,74.1,Slovakia,,,,,,,,,,,175,190,200,,200,200,D,Raw,M,J,75,2000-07-04,22
3,Adam Keřlík,2001,76.1,Czechia,,,,,,,,,,,210,230,-240,,230,230,D,Raw,M,J,82.5,2001-09-01,21
4,Matěj Kříž,2000,81.2,Czechia,,,,,,,,,,,-190,190,210,,210,210,D,Raw,M,J,82.5,2000-01-04,22
1,Matěj Kubíček,2000,82.4,Czechia,,,,,,,,,,,270,-295,-302.5,,270,270,D,Raw,M,J,82.5,2000-04-10,22
2,Peter Franc,1999,82.5,Slovakia,,,,,,,,,,,250,-260,-260,,250,250,D,Raw,M,J,82.5,1999-10-20,
5,Adrián Kolibár,2001,86,Slovakia,,,,,,,,,,,210,220,-230,,220,220,D,Raw,M,J,90,2001-04-12,21
1,Pavel Mynařík,2002,86.3,Czechia,,,,,,,,,,,265,275,280,,280,280,D,Raw,M,J,90,2002-06-13,20
3,Petr Valchář,2001,87.2,Czechia,,,,,,,,,,,230,-245,-245,,230,230,D,Raw,M,J,90,2001-10-05,21
4,Jiří Šmolík,2001,88.6,Czechia,,,,,,,,,,,205,215,225,,225,225,D,Raw,M,J,90,2001-09-25,21
2,David Mareš,2001,88.8,Czechia,,,,,,,,,,,235,245,250,,250,250,D,Raw,M,J,90,2001-07-07,21
2,Lukáš Džavoronok,1999,93.5,Slovakia,,,,,,,,,,,200,220,-240,,220,220,D,Raw,M,J,100,1999-06-22,23
DQ,Juraj Turac,1999,95.9,Slovakia,,,,,,,,,,,-275,-285,-285,,,,D,Raw,M,J,100,1999-11-03,22
1,Richard Leng,1999,96.5,Slovakia,,,,,,,,,,,-270,275,287.5,,287.5,287.5,D,Raw,M,J,100,1999-09-29,23
1,Petr Matěna,2001,117.6,Czechia,,,,,,,,,,,235,250,-260,,250,250,D,Raw,M,J,125,2001-11-23,20
1,Ramón Szeifert,2000,133.2,Slovakia,,,,,,,,,,,260,280,-292.5,,280,280,D,Raw,M,J,140,2000-12-10,21
1,Victor Muntean,1996,53.8,Moldova,,,,,,,,,,,190,200,210,,210,210,D,Raw,M,O,56,1996-11-26,25
1,Viktor Šafránek,1994,59.2,Slovakia,,,,,,,,,,,175,187.5,-200,,187.5,187.5,D,Raw,M,O,60,1994-06-24,28
3,Lukáš Dorazil,1983,71.8,Czechia,,,,,,,,,,,190,-210,-210,,190,190,D,Raw,M,O,75,1983-07-04,39
1,Martin Ürban,1991,73.3,Czechia,,,,,,,,,,,220,230,-240,,230,230,D,Raw,M,O,75,1991-04-11,31
4,Dean Uzelac,1989,74,Croatia,,,,,,,,,,,150,170,-195,,170,170,D,Raw,M,O,75,1989-12-21,32
DQ,Francesco Frasca,1984,75.6,Italy,,,,,,,,,,,-190,-190,-190,,,,D,Raw,M,O,82.5,1984-09-04,38
4,Daniel Tatarka,1983,78.2,Slovakia,,,,,,,,,,,255,265,-275,,265,265,D,Raw,M,O,82.5,1983-10-03,39
1,Marko Mari,1994,80,Hungary,,,,,,,,,,,257.5,275,285,,285,285,D,Raw,M,O,82.5,1994-08-09,28
5,Jakub Dorčák,1997,80.1,Slovakia,,,,,,,,,,,215,225,-230,,225,225,D,Raw,M,O,82.5,1997-02-25,25
6,Petr Nekvapil,1992,80.3,Czechia,,,,,,,,,,,150,160,-167.5,,160,160,D,Raw,M,O,82.5,1992-04-04,30
2,Dominik Šafránek,1992,80.3,Slovakia,,,,,,,,,,,270,-280,-287.5,,270,270,D,Raw,M,O,82.5,1992-03-18,30
3,Marek Kéri,1993,82.5,Slovakia,,,,,,,,,,,-255,-265,267.5,,267.5,267.5,D,Raw,M,O,82.5,1993-01-24,29
5,Pál Tóth,1991,83.4,Hungary,,,,,,,,,,,230,235,-240,,235,235,D,Raw,M,O,90,1991-03-03,31
2,Šimon Matějka,1994,86.5,Czechia,,,,,,,,,,,260,280,-290,,280,280,D,Raw,M,O,90,1994-03-23,28
3,Norbert Gerhát,1990,87.3,Hungary,,,,,,,,,,,240,245,-250,,245,245,D,Raw,M,O,90,1990-09-11,32
4,Daniel Jagódka,1994,88.8,Poland,,,,,,,,,,,-240,240,-250,,240,240,D,Raw,M,O,90,1994-05-24,28
1,Szilárd Andrási,1997,89.1,Hungary,,,,,,,,,,,290,-300,-300,,290,290,D,Raw,M,O,90,1997-06-09,25
1,Lukáš Prekop,1994,94.1,Slovakia,,,,,,,,,,,285,300,-310,,300,300,D,Raw,M,O,100,1994-07-27,28
5,Michal Švec,1985,95.5,Czechia,,,,,,,,,,,230,240,-245,,240,240,D,Raw,M,O,100,1985-02-19,37
2,Kristóf Kincses,1992,97.9,Hungary,,,,,,,,,,,285,300,-302.5,,300,300,D,Raw,M,O,100,1992-10-16,30
4,Martin Studnička,1993,98.1,Czechia,,,,,,,,,,,250,275,-285,,275,275,D,Raw,M,O,100,1993-02-14,29
3,Peter Klimo,1985,98.4,Slovakia,,,,,,,,,,,260,275,285,,285,285,D,Raw,M,O,100,1985-10-29,36
DQ,Štefan Elische,1982,98.9,Slovakia,,,,,,,,,,,-250,,,,,,D,Raw,M,O,100,1982-12-12,39
4,Jacek Miarka,1983,102.9,Poland,,,,,,,,,,,210,222.5,-230,,222.5,222.5,D,Raw,M,O,110,1983-03-23,39
3,Ľubomír Vidiščák,1987,103.6,Slovakia,,,,,,,,,,,250,260,270,,270,270,D,Raw,M,O,110,1987-03-02,35
1,József Zetényi,1998,104.6,Hungary,,,,,,,,,,,285,300,310,,310,310,D,Raw,M,O,110,1998-06-12,24
2,Tomáš Tóth,1990,108.8,Slovakia,,,,,,,,,,,-300,300,-310,-312.5,300,300,D,Raw,M,O,110,1990-11-13,31
1,Martin Homola,1994,112.2,Czechia,,,,,,,,,,,350,370,,,370,370,D,Raw,M,O,125,1994-03-30,28
4,Richárd Németh,1993,113,Hungary,,,,,,,,,,,285,300,-315,,300,300,D,Raw,M,O,125,1993-12-09,28
3,Tamás Kurcz,1988,116.1,Hungary,,,,,,,,,,,300,315,-325,,315,315,D,Raw,M,O,125,1988-12-05,33
2,Kristof De Coninck,1985,121.4,Belgium,,,,,,,,,,,345,355,360,,360,360,D,Raw,M,O,125,1985-09-28,37
1,Tomáš Thüringer,1989,151,Slovakia,,,,,,,,,,,200,250,-280,,250,250,D,Raw,M,O,140+,1989-02-02,33
2,Pavel Balážik,1979,59.2,Slovakia,,,,,,,,,,,-130,-130,130,,130,130,D,Raw,M,O,60,1979-08-23,43
1,Oleg Ivanyukov,1980,69.1,Ukraine,,,,,,,,,,,-190,190,-200,,190,190,D,Raw,M,M1,75,1980-08-16,42
2,Alex Piciga,1981,74.5,Slovenia,,,,,,,,,,,170,-182.5,-182.5,,170,170,D,Raw,M,M1,75,1981-10-26,40
1,Péter Karácsony,1982,78.9,Slovakia,,,,,,,,,,,195,200,205,,205,205,D,Raw,M,M1,82.5,1982-02-07,40
1,László Németh,1980,89.3,Hungary,,,,,,,,,,,190,200,210,,210,210,D,Raw,M,M1,90,1980-01-04,42
1,Marcin Oleksy,1981,97.1,Poland,,,,,,,,,,,250,-265,-265,,250,250,D,Raw,M,M1,100,1981-01-14,41
1,Mikko Korpeinen,1980,106.3,Finland,,,,,,,,,,,280,306,-310,,306,306,D,Raw,M,M1,110,1980-12-17,41
2,Jozef Kopálek,1982,108,Slovakia,,,,,,,,,,,200,220,235,,235,235,D,Raw,M,M1,110,1982-04-17,40
3,Péter Pál Juhász-Ilyés,1982,117.4,Hungary,,,,,,,,,,,200,210,-217.5,,210,210,D,Raw,M,M1,125,1982-06-21,40
2,Vlastimil Kalaš,1979,118.4,Czechia,,,,,,,,,,,250,270,287.5,,287.5,287.5,D,Raw,M,M1,125,1979-01-23,43
1,Pál Gubicza,1980,120.9,Hungary,,,,,,,,,,,270,280,290,,290,290,D,Raw,M,M1,125,1980-11-29,41
1,Adam Švehla,1981,139.4,Czechia,,,,,,,,,,,320,340,,,340,340,D,Raw,M,M1,140,1981-03-19,41
2,Mariusz Wyrozębski,1982,140.9,Poland,,,,,,,,,,,260,-280,,,260,260,D,Raw,M,M1,140+,1982-04-01,40
1,Martin Olejár,1981,159.9,Slovakia,,,,,,,,,,,-300,300,-320,,300,300,D,Raw,M,M1,140+,1981-03-08,41
2,Wiesław Kiwacki,1976,73,Poland,,,,,,,,,,,160,200,212.5,,212.5,212.5,D,Raw,M,O,75,1976-11-11,45
1,Paweł Pracownik,1973,73.5,Poland,,,,,,,,,,,270,-300,-300,,270,270,D,Raw,M,M2,75,1973-08-27,49
2,Pavel Vechter,1976,79.2,Slovakia,,,,,,,,,,,200,220,-232.5,,220,220,D,Raw,M,M2,82.5,1976-08-16,46
1,Zsolt Horváth,1975,81.1,Hungary,,,,,,,,,,,235,240,,,240,240,D,Raw,M,M2,82.5,1975-01-05,47
1,Lyra Fábio Correa De,1973,88.4,Brazil,,,,,,,,,,,235,245,-252.5,,245,245,D,Raw,M,M2,90,1973-12-02,48
2,Dariusz Zwoliński,1974,89.7,Poland,,,,,,,,,,,175,185,195,,195,195,D,Raw,M,M2,90,1974-11-06,47
2,Pietro Molinari,1975,96,Italy,,,,,,,,,,,160,180,200,,200,200,D,Raw,M,M2,100,1975-01-23,47
1,Tamás Deli,1977,99,Hungary,,,,,,,,,,,290,300,307.5,-311,307.5,307.5,D,Raw,M,M2,100,1977-08-23,45
1,Grzegorz Drewniany,1977,101.3,Poland,,,,,,,,,,,240,255,,,255,255,D,Raw,M,M2,110,1977-03-20,45
DQ,Ľuboš Trstenský,1974,103.9,Slovakia,,,,,,,,,,,,,,,,,D,Raw,M,M2,110,1974-10-18,
2,Josef Jeníček,1973,106.8,Czechia,,,,,,,,,,,200,212.5,222.5,,222.5,222.5,D,Raw,M,M2,110,1973-06-16,49
1,Ondrej Hudák,1975,115.8,Slovakia,,,,,,,,,,,260,280,,,280,280,D,Raw,M,M2,125,1975-02-02,47
1,Ireneusz Aletorowicz,1974,139.7,Poland,,,,,,,,,,,240,-255,-255,,240,240,D,Raw,M,M2,140,1974-12-20,47
1,Jaroslav Plánka,1968,65.3,Czechia,,,,,,,,,,,180,192.5,,,192.5,192.5,D,Raw,M,M3,67.5,1968-12-18,53
2,Michael Schmidt,1970,80.2,Germany,,,,,,,,,,,230,245,255,,255,255,D,Raw,M,M3,82.5,1970-02-02,52
1,Csaba Simon,1968,81.4,Hungary,,,,,,,,,,,-220,240,257.5,,257.5,257.5,D,Raw,M,M3,82.5,1968-05-15,54
1,Zdeněk Brauner,1972,95.1,Czechia,,,,,,,,,,,255,265,275,,275,275,D,Raw,M,M3,100,1972-07-08,50
3,Vojtech Lázók,1968,105.1,Slovakia,,,,,,,,,,,235,245,,,245,245,D,Raw,M,M3,110,1968-09-03,54
1,László Kiss,1969,107.7,Hungary,,,,,,,,,,,240,260,275,-280,275,275,D,Raw,M,M3,110,1969-04-08,53
2,Evandro Casa Grande,1970,109.5,Brazil,,,,,,,,,,,250,265,275,282.5,275,275,D,Raw,M,M3,110,1970-04-17,52
2,Ronen Eliyahu,1968,115.6,Israel,,,,,,,,,,,210,222.5,,,222.5,222.5,D,Raw,M,M3,125,1968-07-20,54
1,Robert Nemś,1969,120.9,Poland,,,,,,,,,,,260,275,285,,285,285,D,Raw,M,M3,125,1969-06-15,53
1,Aleksandr Romanichev,1963,55.4,Israel,,,,,,,,,,,-165,175,187.5,,187.5,187.5,D,Raw,M,M4,56,1963-10-01,59
1,Zdeno Pupiš,1964,80.1,Slovakia,,,,,,,,,,,165,175,182.5,,182.5,182.5,D,Raw,M,M4,82.5,1964-04-17,58
1,Dudi Eilat,1965,88.2,Israel,,,,,,,,,,,225,235,-244,,235,235,D,Raw,M,M4,90,1965-10-16,57
1,Vladimír Gosin,1965,93.5,Israel,,,,,,,,,,,280,290,-300,,290,290,D,Raw,M,M4,100,1965-06-06,57
2,Attila Heizer,1965,98.6,Hungary,,,,,,,,,,,160,170,190,,190,190,D,Raw,M,M4,100,1965-12-26,56
1,Marcelo Schneider,1967,108.8,Brazil,,,,,,,,,,,245,260,270,-275.5,270,270,D,Raw,M,M4,110,1967-02-25,55
1,Ottó Antal,1959,59.1,Hungary,,,,,,,,,,,140,-150,,,140,140,D,Raw,M,M5,60,1959-08-10,63
1,Sejfo Šehović,1959,73.8,Bosnia and Herzegovina,,,,,,,,,,,235,250,-260,,250,250,D,Raw,M,M5,75,1959-08-13,63
2,Aniello Laccarino,1959,74.5,Italy,,,,,,,,,,,-180,180,195,,195,195,D,Raw,M,M5,75,1959-06-26,63
1,Peter Herák,1960,90.7,Slovakia,,,,,,,,,,,220,232.5,240,,240,240,D,Raw,M,M5,100,1960-12-23,61
DQ,Robert Brasseur,1961,108.3,France,,,,,,,,,,,-220,,,,,,D,Raw,M,M5,110,1961-05-27,61
1,Antoni Kaliňski,1953,63,Poland,,,,,,,,,,,105,115,120,,120,120,D,Raw,M,M6,67.5,1953-10-01,69
1,Zbigniew Koper,1953,72.2,Poland,,,,,,,,,,,140,150,160,,160,160,D,Raw,M,M6,75,1953-10-04,69
2,Jean René Chauvin,1955,76.3,France,,,,,,,,,,,135,150,-160,,150,150,D,Raw,M,M6,82.5,1955-11-02,66
1,Karel Schoř,1955,82,Czechia,,,,,,,,,,,-150,155,160,,160,160,D,Raw,M,M6,82.5,1955-09-09,67
2,Mieczysłąw Maczka,1954,85.7,Germany,,,,,,,,,,,125,,,,125,125,D,Raw,M,M6,90,1954-09-11,68
1,Rémy Krayzel,1955,86.7,Czechia,,,,,,,,,,,215,225,,,225,225,D,Raw,M,M6,90,1955-06-22,67
2,Ondrej Döme,1955,92.5,Slovakia,,,,,,,,,,,135,-145,,,135,135,D,Raw,M,M6,100,1955-11-25,66
1,Wiesław Wrŏbel,1957,99.2,Poland,,,,,,,,,,,245,262.5,270,,270,270,D,Raw,M,M6,100,1957-07-02,65
1,Jonsson Flosi,1954,106.3,Iceland,,,,,,,,,,,200,,,,200,200,D,Raw,M,M6,110,1954-09-28,68
1,Olavi Rintanen,1955,114.6,Finland,,,,,,,,,,,260,,,,260,260,D,Raw,M,M6,125,1955-05-23,67
1,Burkhard Steffen,1950,66.9,Germany,,,,,,,,,,,120,130,140,,140,140,D,Raw,M,M7,67.5,1950-05-29,72
1,Boris Laishin,1950,71,Israel,,,,,,,,,,,155,165,167.5,,167.5,167.5,D,Raw,M,M7,75,1950-08-06,72
2,Ryszard Śliwiński,1950,71.1,Poland,,,,,,,,,,,130,140,145,,145,145,D,Raw,M,M7,75,1950-01-22,72
DQ,Bill Healy,1950,74.4,Israel,,,,,,,,,,,-185,,,,,,D,Raw,M,M7,75,1950-04-07,72
1,Jan Łuka,1949,79.9,Poland,,,,,,,,,,,190,205,207.5,,207.5,207.5,D,Raw,M,M7,82.5,1949-06-07,73
2,Lothar Schulze,1950,81.8,Germany,,,,,,,,,,,150,170,182.5,,182.5,182.5,D,Raw,M,M7,82.5,1950-04-25,72
1,Stefan Sochaňski,1948,86.1,Poland,,,,,,,,,,,160,170,-180,,170,170,D,Raw,M,M7,90,1948-11-17,73
1,Vladimír Svoboda,1952,92.6,Czechia,,,,,,,,,,,140,152.5,160,163.5,160,160,D,Raw,M,M7,100,1952-08-12,70
2,Jozef Meravý,1950,96.8,Slovakia,,,,,,,,,,,130,150,160,163,160,160,D,Raw,M,M7,100,1950-04-20,72
1,Serafim Rocha,1948,103.2,Brazil,,,,,,,,,,,100,130,,,130,130,D,Raw,M,M7,110,1948-04-27,74
1,Valery Frenklah,1943,65.4,Israel,,,,,,,,,,,90,100,-110,,100,100,D,Raw,M,M8,67.5,1943-02-17,79
1,Jozef Bartek,1945,77.1,Slovakia,,,,,,,,,,,80,90,101,,101,101,D,Raw,M,M8,82.5,1945-03-06,77
1,Ernest Ruzin,1937,61.7,Israel,,,,,,,,,,,152.5,160,,,160,160,D,Raw,M,M9,67.5,1937-06-20,85
1,Sarah Allen #1,1978,51.4,UK,,,,,,,,,,,87.5,92.5,95.5,100,95.5,95.5,D,Multi-ply,F,M1,52,1978-09-26,44
1,Eszter Kormos-Csonka,1977,59.4,Hungary,,,,,,,,,,,117.5,-125,125,132,125,125,D,Multi-ply,F,M1,60,1977-12-25,44
1,Katrin Ribb,1970,83.8,Germany,,,,,,,,,,,140,150,155,,155,155,D,Multi-ply,F,M3,90,1970-04-12,52
1,Lesley Jayne Thomas,1966,59.1,UK,,,,,,,,,,,150,157.5,165,-170,165,165,D,Multi-ply,F,M4,60,1966-04-21,56
1,Brigitte Maczka,1961,69.4,Germany,,,,,,,,,,,95,102.5,106.5,,106.5,106.5,D,Multi-ply,F,M5,75,1961-10-05,61
1,Huba Hablicsek,1998,59.2,Hungary,,,,,,,,,,,150,165,-175,,165,165,D,Multi-ply,M,O,60,1998-01-06,24
1,Filip Kaňák,1993,62.2,Czechia,,,,,,,,,,,-200,210,-220,,210,210,D,Multi-ply,M,O,67.5,1993-01-03,29
1,Marko Rudy,1996,77.2,Slovakia,,,,,,,,,,,210,225,235,,235,235,D,Multi-ply,M,O,82.5,1996-05-20,26
2,Ivan Lazor,1991,86.1,Slovakia,,,,,,,,,,,230,250,-260,,250,250,D,Multi-ply,M,O,90,1991-10-08,31
1,Peter Kuchár,1997,90,Slovakia,,,,,,,,,,,280,290,-300,,290,290,D,Multi-ply,M,O,90,1997-08-08,25
2,Károly József Szuder,1987,97.1,Hungary,,,,,,,,,,,260,-270,,,260,260,D,Multi-ply,M,O,100,1987-03-16,35
1,Martin Studnička,1993,97.2,Czechia,,,,,,,,,,,245,260,270,,270,270,D,Multi-ply,M,O,100,1993-02-14,29
2,Darren Bennett,1984,107,Ireland,,,,,,,,,,,280,-302.5,302.5,-322.5,302.5,302.5,D,Multi-ply,M,O,110,1984-07-27,38
1,Dávid Bendík,1991,107.8,Slovakia,,,,,,,,,,,300,320,-325,,320,320,D,Multi-ply,M,O,110,1991-12-31,30
4,Mihály Florin Pusa,1994,109.5,Hungary,,,,,,,,,,,210,230,250,,250,250,D,Multi-ply,M,O,110,1994-04-25,28
1,Ville Pulli,1988,117.9,Finland,,,,,,,,,,,270,-285,-285,,270,270,D,Multi-ply,M,O,125,1988-07-07,34
2,Ján Gdovin,2001,96.5,Slovakia,,,,,,,,,,,200,215,-225,,215,215,D,Multi-ply,M,J,100,2001-10-12,21
1,Dárius Bučo,2001,97.4,Slovakia,,,,,,,,,,,220,-240,240,,240,240,D,Multi-ply,M,J,100,2001-10-18,
1,Kristian Móro,1999,118.5,Slovakia,,,,,,,,,,,275,290,300,,300,300,D,Multi-ply,M,J,125,1999-08-10,23
1,Michal Móry,1978,77.3,Slovakia,,,,,,,,,,,215,228,-240.5,-240.5,228,228,D,Multi-ply,M,M1,82.5,1978-09-13,44
1,Marcel Vasilenko,1979,89,Slovakia,,,,,,,,,,,240,260,-270,,260,260,D,Multi-ply,M,M1,90,1979-05-15,43
1,Michal Švajka,1978,95.4,Slovakia,,,,,,,,,,,180,205,220,,220,220,D,Multi-ply,M,M1,100,1978-05-17,44
2,Jozef Völgyák,1982,102,Slovakia,,,,,,,,,,,220,,,,220,220,D,Multi-ply,M,M1,110,1982-07-12,40
1,Mikko Korpeinen,1980,106.4,Finland,,,,,,,,,,,280,300,-321,,300,300,D,Multi-ply,M,M1,110,1980-12-17,41
1,Robert Ruonaniemi,1980,132.3,Finland,,,,,,,,,,,260,275,-282.5,,275,275,D,Multi-ply,M,M1,140,1980-09-10,42
1,Janoš Ungai,1976,80.1,Hungary,,,,,,,,,,,75,,,,75,75,D,Multi-ply,M,M2,82.5,1976-04-01,46
1,Štefan Sokoly,1976,93,Slovakia,,,,,,,,,,,270,-290,-300,,270,270,D,Multi-ply,M,M2,100,1976-01-14,46
3,Grzegorz Drewniany,1977,100.6,Poland,,,,,,,,,,,260,280,285,,285,285,D,Multi-ply,M,O,110,1977-03-20,45
1,Ľuboš Trstenský,1974,102,Slovakia,,,,,,,,,,,180,200,,,200,200,D,Multi-ply,M,M2,110,1974-10-18,
1,Norbert Hablicsek,1974,117.5,Hungary,,,,,,,,,,,260,280,300,,300,300,D,Multi-ply,M,M2,125,1974-01-15,48
1,Csaba Simon,1968,81.5,Hungary,,,,,,,,,,,235,255,-280,-280,255,255,D,Multi-ply,M,M3,82.5,1968-05-15,54
1,Ivan Levický,1970,106.2,Slovakia,,,,,,,,,,,275,290,302.5,-305.5,302.5,302.5,D,Multi-ply,M,M3,110,1970-04-10,52
2,Evandro Casa Grande,1970,109.8,Brazil,,,,,,,,,,,260,280,302.5,-305.5,302.5,302.5,D,Multi-ply,M,M3,110,1970-04-17,52
2,Tibor Manzera,1968,110.1,Hungary,,,,,,,,,,,165,175,182.5,,182.5,182.5,D,Multi-ply,M,M3,125,1968-09-12,54
1,Hagen Ribb,1970,111.8,Germany,,,,,,,,,,,180,210,225,,225,225,D,Multi-ply,M,M3,125,1970-06-03,52
1,Aleksandr Romanichev,1963,55.7,Israel,,,,,,,,,,,180,190,200,,200,200,D,Multi-ply,M,M4,56,1963-10-01,59
1,Liam Beville,1965,86.4,Ireland,,,,,,,,,,,260,270,-280,,270,270,D,Multi-ply,M,M4,90,1965-04-20,57
2,Dudi Eilat,1965,89.1,Israel,,,,,,,,,,,-230,235,245,,245,245,D,Multi-ply,M,M4,90,1965-10-16,57
1,Karol Kornel Repiský,1964,125.8,Slovakia,,,,,,,,,,,230,240,,,240,240,D,Multi-ply,M,M4,140,1964-06-26,58
1,Karol Brečka,1961,75.4,Czechia,,,,,,,,,,,205,217.5,,,217.5,217.5,D,Multi-ply,M,M5,82.5,1961-04-16,61
1,Mieczysłąw Maczka,1954,84.4,Germany,,,,,,,,,,,130,,,,130,130,D,Multi-ply,M,M6,90,1954-09-11,68
1,Pavel Klepáč,1955,125.5,Czechia,,,,,,,,,,,100,120,135,,135,135,D,Multi-ply,M,M6,140,1955-12-21,66
1,Bill Healy,1950,74.6,Ireland,,,,,,,,,,,185,-195,-195,,185,185,D,Multi-ply,M,M7,75,1950-04-17,72
1,Schulze Lothar,1950,81.5,Germany,,,,,,,,,,,160,170,180,,180,180,D,Multi-ply,M,M7,82.5,1950-04-25,72
1,Stefan Sochaňski,1948,85.4,Poland,,,,,,,,,,,177.5,197.5,,,197.5,197.5,D,Multi-ply,M,M7,90,1948-11-17,73
1,Ladislau Kiss,1948,95.8,Hungary,,,,,,,,,,,240,255,265,,265,265,D,Multi-ply,M,M7,100,1948-05-22,74
1,Jaroslav Tomanec,1943,81.6,Czechia,,,,,,,,,,,135,-140,140,,140,140,D,Multi-ply,M,M8,82.5,1943-04-22,79
1,Hanna Marosi,2007,60,Hungary,,,,,,40,45,47.5,-50,47.5,,,,,,47.5,B,Raw,F,T1,60,2007-03-21,15
1,Eliza Kékesi,2005,70.8,Hungary,,,,,,70,-75,-75,,70,,,,,,70,B,Raw,F,T2,75,2005-06-09,17
1,Nikol Lenghartová,2006,81.6,Slovakia,,,,,,50,55,-60,,55,,,,,,55,B,Raw,F,T2,82.5,2006-02-13,16
1,Noémi Magura,2006,82.8,Hungary,,,,,,40,45,47.5,-48,47.5,,,,,,47.5,B,Raw,F,T2,90,2006-03-09,16
1,Ema Mišovčíková,2003,54.1,Slovakia,,,,,,70,75,-80,,75,,,,,,75,B,Raw,F,T3,56,2003-07-21,19
1,Szandra Zachariás,2004,57.9,Hungary,,,,,,62.5,67.5,-70,,67.5,,,,,,67.5,B,Raw,F,T3,60,2004-09-02,18
1,Karolína Lepšová,2004,66.4,Czechia,,,,,,60,65,-70,,65,,,,,,65,B,Raw,F,T3,67.5,2004-04-09,18
1,Odett Bernadett Becz,2003,68.4,Hungary,,,,,,100,110,117.5,120,117.5,,,,,,117.5,B,Raw,F,T3,75,2003-05-02,19
1,Diana Balážová,2003,97.8,Slovakia,,,,,,40,47.5,50.5,,50.5,,,,,,50.5,B,Raw,F,T3,110,2003-01-10,19
1,Ilka Németh,2004,110.1,Hungary,,,,,,47.5,55,-57.5,,55,,,,,,55,B,Raw,F,T3,110+,2004-10-10,18
1,Alexandra Hubinská,2000,63.8,Slovakia,,,,,,80,85,-90,,85,,,,,,85,B,Raw,F,J,67.5,2000-09-20,22
1,Jagoda Owczarek,2002,68,Poland,,,,,,52.5,-55,55,,55,,,,,,55,B,Raw,F,J,75,2002-02-11,20
DQ,Boglárka Horváth,2001,76.8,Hungary,,,,,,-50,,,,,,,,,,,B,Raw,F,J,82.5,2001-08-11,21
2,Radoslava Tóth,1988,47.1,Slovakia,,,,,,45,-50,-50,,45,,,,,,45,B,Raw,F,O,48,1988-06-13,34
1,Petra Kubicová,1988,47.2,Slovakia,,,,,,47.5,50,-52.5,,50,,,,,,50,B,Raw,F,O,48,1988-08-19,34
2,Silvia Řeháková,1997,50.2,Slovakia,,,,,,35,-45,-45,,35,,,,,,35,B,Raw,F,O,52,1997-05-22,25
1,Eva Strnadová,1983,52,Czechia,,,,,,45,-50,-50,,45,,,,,,45,B,Raw,F,O,52,1983-07-11,39
1,Natalia Klymchuk,1984,59.6,Ukraine,,,,,,70,77.5,80,,80,,,,,,80,B,Raw,F,O,60,1984-09-25,38
4,Eva Padová,1990,59.7,Slovakia,,,,,,40,45,47.5,,47.5,,,,,,47.5,B,Raw,F,O,60,1990-02-01,32
2,Júlia Karová,1985,59.9,Slovakia,,,,,,70,-72.5,-72.5,,70,,,,,,70,B,Raw,F,O,60,1985-12-29,36
3,Anna Dorottya Tóth,1996,59.9,Hungary,,,,,,60,65,-70,,65,,,,,,65,B,Raw,F,O,60,1996-10-20,
1,Andrea Benešová,1992,66,Czechia,,,,,,95,100,105,,105,,,,,,105,B,Raw,F,O,67.5,1992-10-07,30
2,Tinna Pallsdottir,1987,66.6,Iceland,,,,,,80,85,90,,90,,,,,,90,B,Raw,F,O,67.5,1987-07-15,35
1,Gyöngyi Herczeg,1992,69.5,Hungary,,,,,,90,95,-100,,95,,,,,,95,B,Raw,F,O,75,1992-11-23,29
3,Katarina Kosmač,1995,76.9,Slovenia,,,,,,75,-80,-80,,75,,,,,,75,B,Raw,F,O,82.5,1995-10-20,
2,Marcela Támarová,1986,79.2,Slovakia,,,,,,90,97.5,-100,,97.5,,,,,,97.5,B,Raw,F,O,82.5,1986-10-05,36
1,Katarzyna Kamieńska,1984,81.1,Poland,,,,,,95,-100,100,,100,,,,,,100,B,Raw,F,O,82.5,1984-06-18,38
1,Małgorzata Malikowska-Pikula,1985,84,Poland,,,,,,160,165,-170,,165,,,,,,165,B,Raw,F,O,90,1985-11-29,36
3,Ágnes Nagy,1985,85.4,Hungary,,,,,,80,85,90,,90,,,,,,90,B,Raw,F,O,90,1985-07-01,37
2,Tatiana Dudnik,1983,87.6,Ukraine,,,,,,115,-125,-125,,115,,,,,,115,B,Raw,F,O,90,1983-05-24,39
2,Barbara Mocsár,1986,97.8,Hungary,,,,,,60,65,-70,,65,,,,,,65,B,Raw,F,O,110,1986-03-15,36
1,Laura Blanka Csánicz,1998,102.7,Hungary,,,,,,85,-95,95,,95,,,,,,95,B,Raw,F,O,110,1998-10-07,24
1,Polona Demšar,1979,59.3,Slovenia,,,,,,57.5,60,-62.5,,60,,,,,,60,B,Raw,F,M1,60,1979-09-03,43
1,Joanna Kosik,1982,65.9,Poland,,,,,,-115,115,120,122.5,120,,,,,,120,B,Raw,F,M1,67.5,1982-07-01,40
2,Ewelina Kasprzak,1978,66.6,Poland,,,,,,-60,60,-65,,60,,,,,,60,B,Raw,F,M1,67.5,1978-11-06,43
2,Edit Borka,1980,69.1,Hungary,,,,,,77.5,-82.5,-82.5,,77.5,,,,,,77.5,B,Raw,F,O,75,1980-01-09,42
1,Tatiana Magulová,1981,74,Slovakia,,,,,,90,95,-100,,95,,,,,,95,B,Raw,F,M1,75,1981-06-30,41
1,Ilona Simon,1979,79.1,Hungary,,,,,,82.5,90,-95,-103,90,,,,,,90,B,Raw,F,M1,82.5,1979-02-05,43
2,Beáta Szalay,1979,81.7,Hungary,,,,,,70,75,80,,80,,,,,,80,B,Raw,F,M1,82.5,1979-11-24,42
1,Anita Nagy,1974,55.4,Hungary,,,,,,70,77.5,80,,80,,,,,,80,B,Raw,F,M2,56,1974-03-05,48
1,Daniela Poláková,1976,59,Czechia,,,,,,85,92.5,-97.5,,92.5,,,,,,92.5,B,Raw,F,M2,60,1976-08-13,46
2,Llona Egri,1972,59.2,Hungary,,,,,,55,57.5,-60,,57.5,,,,,,57.5,B,Raw,F,M2,60,1972-12-11,49
2,Zsenett Pálfalvi,1973,61.9,Hungary,,,,,,47.5,52.5,-55,,52.5,,,,,,52.5,B,Raw,F,M2,67.5,1973-05-28,49
1,Erika Molnár,1977,63.1,Hungary,,,,,,50,55,-60,,55,,,,,,55,B,Raw,F,M2,67.5,1977-03-23,45
2,Mónika Bazsó,1974,75.4,Hungary,,,,,,107.5,112.5,-117.5,,112.5,,,,,,112.5,B,Raw,F,M2,82.5,1974-02-01,48
1,Evelin Eisensehr,1973,80,Hungary,,,,,,115,120,122.5,127.5,122.5,,,,,,122.5,B,Raw,F,M2,82.5,1973-11-16,48
1,Andrea Csuti,1975,85,Hungary,,,,,,55,60,65,,65,,,,,,65,B,Raw,F,M2,90,1975-02-14,47
1,Irina Pomerantsev,1970,43.1,Israel,,,,,,52.5,57.5,-60,,57.5,,,,,,57.5,B,Raw,F,M3,44,1970-06-08,52
1,Ester Cichá,1970,55,Czechia,,,,,,50,-55,-55,,50,,,,,,50,B,Raw,F,M3,56,1970-02-25,52
2,Tál Lívia Némethné,1971,62.6,Hungary,,,,,,35,40,42.5,,42.5,,,,,,42.5,B,Raw,F,M3,67.5,1971-10-23,50
1,Katalin Schindlerné Kis,1970,67.1,Hungary,,,,,,110,-115,-115,,110,,,,,,110,B,Raw,F,M3,67.5,1970-12-21,51
1,Leena Stålstedt,1968,75.5,Finland,,,,,,77.5,85,87.5,,87.5,,,,,,87.5,B,Raw,F,M3,82.5,1968-06-24,54
1,Bettina Razzouki-Korkis,1965,56,Poland,,,,,,62.5,72.5,73,,73,,,,,,73,B,Raw,F,M4,56,1965-08-28,57
1,Ana Catia Portihlo Couto,1966,67.1,Brazil,,,,,,75,80,85,-87.5,85,,,,,,85,B,Raw,F,M4,67.5,1966-10-21,
1,Puzio Krystyna Abramczyk,1965,103.6,Poland,,,,,,70,75,-80,,75,,,,,,75,B,Raw,F,M4,110,1965-04-23,57
1,Zsuzsanna Horváth,1962,44,Hungary,,,,,,37.5,40,42.5,45,42.5,,,,,,42.5,B,Raw,F,M5,44,1962-06-03,60
2,Brigitte Maczka,1961,69.3,Germany,,,,,,35,40,,,40,,,,,,40,B,Raw,F,M5,75,1961-10-05,61
1,Christine Henwood,1958,72.8,New Zealand,,,,,,85,90,92.5,95,92.5,,,,,,92.5,B,Raw,F,M5,75,1958-02-26,64
1,Dana Bešková,1954,55.4,Czechia,,,,,,30,35,-37.5,,35,,,,,,35,B,Raw,F,M6,56,1954-09-29,68
1,Lydie Pons,1950,66,France,,,,,,57.5,62.5,67.5,,67.5,,,,,,67.5,B,Raw,F,M7,67.5,1950-11-22,71
1,Miroslav Berki,2007,55.8,Slovakia,,,,,,80,90,-100,,90,,,,,,90,B,Raw,M,T1,56,2007-04-08,15
1,Maciej Poniatowski,2007,82.5,Poland,,,,,,122.5,128,-132.5,,128,,,,,,128,B,Raw,M,T1,82.5,2007-06-26,15
1,Erik Susztay,2009,88.2,Slovakia,,,,,,60,65,-70,,65,,,,,,65,B,Raw,M,T1,90,2009-03-25,13
2,Lubomír Fábry,2008,94.1,Slovakia,,,,,,70,80,85,,85,,,,,,85,B,Raw,M,T1,100,2008-11-04,13
1,Jatin,2008,95.6,India,,,,,,105,-115,-115,,105,,,,,,105,B,Raw,M,T1,100,2008-05-26,14
2,António Gombala,2005,94.6,Slovakia,,,,,,135,145,-152.5,,145,,,,,,145,B,Raw,M,T2,100,2005-09-29,17
1,Mateusz Poniatowski,2005,96.1,Poland,,,,,,160,165.5,-170,-170,165.5,,,,,,165.5,B,Raw,M,T2,100,2005-03-10,17
3,Ferenc Arnold Busznyak,2005,98.2,Hungary,,,,,,85,95,-100,,95,,,,,,95,B,Raw,M,T2,100,2005-05-30,17
1,Kristóf Lajos Szalai,2006,107.8,Hungary,,,,,,110,120,-122.5,,120,,,,,,120,B,Raw,M,T2,110,2006-01-24,16
1,Balazs Voros,2006,121,Hungary,,,,,,200,205,-210,-210,205,,,,,,205,B,Raw,M,T2,125,2006-09-16,16
1,Norbert Słupski,2005,135.2,Poland,,,,,,-150,150,-160,,150,,,,,,150,B,Raw,M,T2,140,2005-04-07,17
1,Filip Prchal,2003,63.2,Czechia,,,,,,120,122.5,125,,125,,,,,,125,B,Raw,M,T3,67.5,2003-05-30,19
2,Yulian Sidun,2003,65,Czechia,,,,,,125,-132.5,-132.5,,125,,,,,,125,B,Raw,M,T3,67.5,2003-08-09,19
1,Radek Knápek,2003,74.5,Czechia,,,,,,135,142.5,-145,,142.5,,,,,,142.5,B,Raw,M,T3,75,2003-04-14,19
2,Márton Csák,2003,80.3,Hungary,,,,,,107.5,-112.5,-112.5,,107.5,,,,,,107.5,B,Raw,M,T3,82.5,2003-07-24,19
1,Tadeáš Zapletal,2004,80.8,Czechia,,,,,,120,125,132.5,,132.5,,,,,,132.5,B,Raw,M,T3,82.5,2004-09-11,18
2,David Krmášek,2004,95.4,Czechia,,,,,,107.5,115,122.5,,122.5,,,,,,122.5,B,Raw,M,T3,100,2004-10-04,18
1,Remigiusz Zwoliński,2003,95.7,Poland,,,,,,125,132.5,140,,140,,,,,,140,B,Raw,M,T3,100,2003-08-15,19
1,Ondřej Stellar,2004,111.4,Czechia,,,,,,140,150,-160,,150,,,,,,150,B,Raw,M,T3,125,2004-09-29,18
2,Kacper Grabowski,2003,114.1,Poland,,,,,,130,-135,135,,135,,,,,,135,B,Raw,M,T3,125,2003-01-28,19
1,Marek Šimurda,2000,54.3,Slovakia,,,,,,72.5,82.5,-87.5,87.5,82.5,,,,,,82.5,B,Raw,M,J,56,2000-07-04,22
1,Kristopher Tan,2002,56.7,Singapore,,,,,,-110,110,-115,,110,,,,,,110,B,Raw,M,J,60,2002-08-09,20
2,Petr Chrápek,2001,60.7,Slovakia,,,,,,90,105,115,,115,,,,,,115,B,Raw,M,J,67.5,2001-01-07,21
3,Marian Karcol,2000,60.7,Slovakia,,,,,,70,-75,-75,,70,,,,,,70,B,Raw,M,J,67.5,2000-02-16,22
1,Benjamin Áder,1998,67.5,Hungary,,,,,,137.5,142.5,147.5,-150.5,147.5,,,,,,147.5,B,Raw,M,J,67.5,1998-11-15,23
1,Sebasian Marko Jezildzic,2000,73,Hungary,,,,,,135,142.5,150,,150,,,,,,150,B,Raw,M,J,75,2000-10-07,22
2,Martin Chalupa,1999,74,Czechia,,,,,,120,-130,-130,,120,,,,,,120,B,Raw,M,J,75,1999-12-14,22
2,Bálint Száraz,1999,82,Hungary,,,,,,165,-172.5,-175,,165,,,,,,165,B,Raw,M,J,82.5,1999-05-22,23
1,Michał Kowalski,2001,82.3,Poland,,,,,,170,175,180,-182.5,180,,,,,,180,B,Raw,M,J,82.5,2001-12-10,20
5,Tamás Benedek Lóczi,2001,84.9,Hungary,,,,,,125,132.5,-135,,132.5,,,,,,132.5,B,Raw,M,J,90,2001-05-30,21
2,Emil Karejalainen,1999,86.7,Finland,,,,,,152.5,162.5,-165,,162.5,,,,,,162.5,B,Raw,M,J,90,1999-03-14,23
3,Petr Bartošík,2001,87.8,Czechia,,,,,,145,-150,150,,150,,,,,,150,B,Raw,M,J,90,2001-05-23,21
4,Patrik Király,2002,87.9,Hungary,,,,,,130,140,-147.5,,140,,,,,,140,B,Raw,M,J,90,2002-03-27,20
1,Ferenc Márk Mata,2001,88.1,Hungary,,,,,,165,-175,-175,,165,,,,,,165,B,Raw,M,J,90,2001-07-15,21
6,Jiří Šmolík,2001,89.2,Czechia,,,,,,125,-132.5,-132.5,,125,,,,,,125,B,Raw,M,J,90,2001-09-25,21
DQ,Juraj Turac,1999,96,Slovakia,,,,,,-150,-150,,,,,,,,,,B,Raw,M,J,100,1999-11-03,22
2,Jakub Cepko,2002,98.9,Slovakia,,,,,,150,-155,-155,,150,,,,,,150,B,Raw,M,J,100,2002-07-03,20
1,Eduard Laczko,1999,99.8,Slovakia,,,,,,182.5,192.5,205,,205,,,,,,205,B,Raw,M,J,100,1999-08-03,23
1,Daniel Kurek,1999,104.2,Slovakia,,,,,,170,180,-185,,180,,,,,,180,B,Raw,M,J,110,1999-04-25,23
2,Mikołaj Bystroński,2001,107.4,Poland,,,,,,150,155,-160,,155,,,,,,155,B,Raw,M,J,110,2001-12-12,20
2,Filip Krajča,1999,118.1,Czechia,,,,,,210,220,-225,,220,,,,,,220,B,Raw,M,J,125,1999-08-26,23
4,Petr Matěna,2001,118.2,Czechia,,,,,,120,125,-130,,125,,,,,,125,B,Raw,M,J,125,2001-11-23,20
3,Petr Jeřábek,1999,119.9,Czechia,,,,,,180,-190,-190,,180,,,,,,180,B,Raw,M,J,125,1999-09-10,23
1,David Bartošík,1998,121,Czechia,,,,,,210,220,225,,225,,,,,,225,B,Raw,M,J,125,1998-11-02,23
1,István Norbert Szalay,1999,129,Hungary,,,,,,170,180,190,,190,,,,,,190,B,Raw,M,J,140,1999-04-02,23
2,Ramón Szeifert,2000,133.5,Slovakia,,,,,,160,170,-185,,170,,,,,,170,B,Raw,M,J,140,2000-10-13,22
1,Rafał Roch,1993,51,Poland,,,,,,152.5,160,165,,165,,,,,,165,B,Raw,M,O,56,1993-10-04,29
1,Nogueira Thiago Baptista,1989,58.2,Brazil,,,,,,120,125.5,-130,,125.5,,,,,,125.5,B,Raw,M,O,60,1989-09-02,33
2,Péter Dobos,1985,62.2,Hungary,,,,,,65,70,72.5,,72.5,,,,,,72.5,B,Raw,M,O,67.5,1985-07-23,37
1,Marek Trykacz,1985,64.1,Poland,,,,,,165,171,176,,176,,,,,,176,B,Raw,M,O,67.5,1985-10-06,37
4,Pavel Jurča,1988,73,Czechia,,,,,,125,135,-140,,135,,,,,,135,B,Raw,M,O,75,1988-07-16,34
3,Radek Trvaj,1997,73.7,Czechia,,,,,,140,145,-150,,145,,,,,,145,B,Raw,M,O,75,1997-05-17,25
5,Damian Redzynia,1993,74.1,Poland,,,,,,130,-135,-135,,130,,,,,,130,B,Raw,M,O,75,1993-01-14,29
6,Dean Uzelac,1989,74.2,Croatia,,,,,,110,125,-135,,125,,,,,,125,B,Raw,M,O,75,1989-12-21,32
1,Dawid Rudnicki,1989,74.6,Poland,,,,,,150,157.5,-160,,157.5,,,,,,157.5,B,Raw,M,O,75,1989-02-17,33
2,Mário Zastko,1995,74.8,Slovakia,,,,,,155,-160,-160,,155,,,,,,155,B,Raw,M,O,75,1995-06-06,27
10,Michal Kozma,1992,76.2,Slovakia,,,,,,150,-155,,,150,,,,,,150,B,Raw,M,O,82.5,1992-03-23,30
DQ,Francesco Frasca,1984,76.9,Italy,,,,,,,,,,,,,,,,,B,Raw,M,O,82.5,1984-09-04,38
6,Zdeněk Holeček,1988,77.2,Czechia,,,,,,170,177.5,-182.5,,177.5,,,,,,177.5,B,Raw,M,O,82.5,1988-03-30,34
5,Stanislav Beneš,1989,77.6,Czechia,,,,,,170,-180,180,,180,,,,,,180,B,Raw,M,O,82.5,1989-12-04,32
8,Tomáš Dobiáš,1997,79.5,Slovakia,,,,,,160,165,-170,,165,,,,,,165,B,Raw,M,O,82.5,1997-05-31,25
7,Marko Mari,1994,81.2,Hungary,,,,,,165,172.5,177.5,,177.5,,,,,,177.5,B,Raw,M,O,82.5,1994-08-09,28
3,Łukasz Szczerba,1993,81.3,Poland,,,,,,170,180,182.5,,182.5,,,,,,182.5,B,Raw,M,O,82.5,1993-01-09,29
1,Samek Stanisław Gąsienica,1983,81.8,Poland,,,,,,177.5,182.5,185,,185,,,,,,185,B,Raw,M,O,82.5,1983-04-30,39
11,Damian Kaszuba,1990,81.8,Poland,,,,,,135,140,-145,,140,,,,,,140,B,Raw,M,O,82.5,1990-10-02,32
9,Benjámin Laki,1996,81.9,Hungary,,,,,,150,155,-160,,155,,,,,,155,B,Raw,M,O,82.5,1996-12-28,25
4,Jan Hamr,1984,82.3,Czechia,,,,,,175,182.5,-185,,182.5,,,,,,182.5,B,Raw,M,O,82.5,1984-07-08,38
2,Gábor Molnár,1992,82.5,Hungary,,,,,,175,182.5,185,,185,,,,,,185,B,Raw,M,O,82.5,1992-12-08,29
4,Yevgenii Bohovyk,1995,88.3,Ukraine,,,,,,190,-200,-200,,190,,,,,,190,B,Raw,M,O,90,1995-11-26,26
1,Tomáš Ryšavý,1991,88.7,Slovakia,,,,,,200,212.5,-217.5,,212.5,,,,,,212.5,B,Raw,M,O,90,1991-08-06,31
5,Patryk Kaczmarek,1995,88.8,Poland,,,,,,180,-185,-185,,180,,,,,,180,B,Raw,M,O,90,1995-04-23,27
6,Zdeněk Slovák,1986,88.9,Czechia,,,,,,180,-190,-190,,180,,,,,,180,B,Raw,M,O,90,1986-04-17,36
8,Patryk Zgliński,1994,89.3,Poland,,,,,,150,-155,-155,,150,,,,,,150,B,Raw,M,O,90,1994-04-02,28
7,Kamil Babiš,1991,90,Czechia,,,,,,172.5,180,-182.5,,180,,,,,,180,B,Raw,M,O,90,1991-10-17,31
3,Mateusz Garbowski,1993,90,Poland,,,,,,180,190,192.5,,192.5,,,,,,192.5,B,Raw,M,O,90,1993-05-07,29
2,Krzysztof Mandziak,1991,90,Poland,,,,,,200,-210,-210,,200,,,,,,200,B,Raw,M,O,90,1991-08-10,31
5,Ben Burton #1,1995,94.5,UK,,,,,,185,-200,-200,,185,,,,,,185,B,Raw,M,O,100,1995-09-27,27
7,Gábor Galambos,1983,94.7,Hungary,,,,,,105,-110,-110,,105,,,,,,105,B,Raw,M,O,100,1983-12-31,38
6,Vikas Verma,1983,96.7,India,,,,,,140,145,150,,150,,,,,,150,B,Raw,M,O,100,1983-03-09,39
4,Łukasz Ślósarek,1987,98.1,Poland,,,,,,205,-212.5,-212.5,,205,,,,,,205,B,Raw,M,O,100,1987-07-14,35
1,Ákos Oláh,1989,98.5,Hungary,,,,,,210,220,-225,,220,,,,,,220,B,Raw,M,O,100,1989-03-04,33
DQ,Július Mertvík,1996,99.1,Slovakia,,,,,,,,,,,,,,,,,B,Raw,M,O,100,1996-11-05,25
2,Dezső Jr. Korom,1997,99.8,Hungary,,,,,,220,-225,-225,,220,,,,,,220,B,Raw,M,O,100,1997-01-09,25
3,Jarosław Buczko,1992,99.9,Poland,,,,,,210,215,-222.5,,215,,,,,,215,B,Raw,M,O,100,1992-04-24,30
3,Tadeusz Tessmer,1989,107,Poland,,,,,,200,210,-220,,210,,,,,,210,B,Raw,M,O,110,1989-11-29,32
1,Ádám Moszkál,1996,108.4,Hungary,,,,,,260,268,-271.5,,268,,,,,,268,B,Raw,M,O,110,1996-01-31,26
2,Juraj Korman,1996,109.2,Slovakia,,,,,,200,-210,212.5,,212.5,,,,,,212.5,B,Raw,M,O,110,1996-02-06,26
DQ,Tomislav Bitunjac,1996,111.5,Croatia,,,,,,-235,-235,,,,,,,,,,B,Raw,M,O,125,1996-09-08,26
DQ,Marijo Rukavina,1983,112.8,Croatia,,,,,,-215,-215,-215,,,,,,,,,B,Raw,M,O,125,1983-10-23,38
2,Alexander Popa,1988,119.9,Czechia,,,,,,242.5,250,-255,,250,,,,,,250,B,Raw,M,O,125,1988-05-09,34
1,Yaroslav Vdovychenko,1984,120.5,Ukraine,,,,,,255,260.5,262.5,-271,262.5,,,,,,262.5,B,Raw,M,O,125,1984-06-27,38
3,Dénes Kovács,1990,123.1,Hungary,,,,,,250,-260.5,-261,,250,,,,,,250,B,Raw,M,O,125,1990-10-06,32
4,Branislav Háber,1995,123.6,Slovakia,,,,,,235,-245,-245,,235,,,,,,235,B,Raw,M,O,125,1995-02-09,27
1,Miroslav Semín,1986,125.3,Czechia,,,,,,230,240,245,,245,,,,,,245,B,Raw,M,O,140,1986-03-29,36
2,Tomáš Nesvadba,1993,130.1,Czechia,,,,,,225,232.5,-240,,232.5,,,,,,232.5,B,Raw,M,O,140,1993-07-02,29
3,Krzysztof Cieślak,1984,136,Poland,,,,,,210,225,-240,,225,,,,,,225,B,Raw,M,O,140,1984-11-09,37
2,Adam Kornak,1988,140.6,Czechia,,,,,,170,175,180,,180,,,,,,180,B,Raw,M,O,140+,1988-04-29,34
3,Martin Kuchař,1990,147.1,Czechia,,,,,,170,175,-177.5,,175,,,,,,175,B,Raw,M,O,140+,1990-08-07,32
1,Farik Muhić,1995,147.5,Bosnia and Herzegovina,,,,,,250,257.5,-262.5,,257.5,,,,,,257.5,B,Raw,M,O,140+,1995-05-08,27
4,Tomáš Thüringer,1989,150.9,Slovakia,,,,,,130,150,-160,,150,,,,,,150,B,Raw,M,O,140+,1989-02-02,33
DQ,Oleh Ivanyukov,1980,70.5,Ukraine,,,,,,-107.5,-107.5,,,,,,,,,,B,Raw,M,M1,75,1980-08-16,42
1,Alex Piciga,1981,74.5,Slovenia,,,,,,105,107.5,110,,110,,,,,,110,B,Raw,M,M1,75,1981-10-26,40
1,Sebastian Niedziela,1979,81.9,Poland,,,,,,140,150,155,,155,,,,,,155,B,Raw,M,M1,82.5,1979-02-04,43
2,Tamás Podmaniczki,1978,82.4,Hungary,,,,,,-135,135,-140,,135,,,,,,135,B,Raw,M,M1,82.5,1978-10-18,
3,Júnior Cícero Bezerra Da Silva,1982,83.8,Brazil,,,,,,165,-170,170,,170,,,,,,170,B,Raw,M,M1,90,1982-04-11,40
4,Přemysl Rychtera,1980,88.4,Czechia,,,,,,157.5,-165,-165,,157.5,,,,,,157.5,B,Raw,M,M1,90,1980-06-25,42
2,László Németh,1980,89.4,Hungary,,,,,,170,182.5,-192.5,,182.5,,,,,,182.5,B,Raw,M,M1,90,1980-01-04,42
1,Aleksandrs Ņikitins,1980,89.7,Latvia,,,,,,180,-187.5,192.5,,192.5,,,,,,192.5,B,Raw,M,M1,90,1980-09-23,42
3,Michal Švajka,1978,96,Slovakia,,,,,,150,160,-165,,160,,,,,,160,B,Raw,M,M1,100,1978-05-17,44
2,Andrzej Juraszek,1977,96.1,Poland,,,,,,150,160,165,,165,,,,,,165,B,Raw,M,M1,100,1977-11-30,44
1,Hakkinen Jarkko Yla,1979,97,Finland,,,,,,180,-200,-200,,180,,,,,,180,B,Raw,M,M1,100,1979-06-02,43
1,Petr Novák,1977,97.9,Czechia,,,,,,200,210,-212.5,,210,,,,,,210,B,Raw,M,M2,100,,
3,Pavel Rychtera,1982,102.9,Czechia,,,,,,150,157.5,,,157.5,,,,,,157.5,B,Raw,M,M1,110,1982-01-07,40
1,Krzysztof Zakrzewski,1977,104.6,Poland,,,,,,200,207.5,-215,,207.5,,,,,,207.5,B,Raw,M,M1,110,1977-12-09,44
2,Andrey Glukhov,1978,106.2,Israel,,,,,,195,-200,,,195,,,,,,195,B,Raw,M,M1,110,1978-04-02,44
4,Jozef Kopálek,1982,107.7,Slovakia,,,,,,155,-160,-160,,155,,,,,,155,B,Raw,M,M1,110,1982-04-17,40
1,Sandor Vazsilko,1982,110.6,Hungary,,,,,,182.5,187.5,192.5,,192.5,,,,,,192.5,B,Raw,M,M1,125,1982-06-06,40
4,Michal Kráľ,1982,117.1,Slovakia,,,,,,160,165,-170,,165,,,,,,165,B,Raw,M,M1,125,1982-03-18,40
3,Gábor Somogyi,1980,117.6,Hungary,,,,,,182.5,187.5,-192.5,,187.5,,,,,,187.5,B,Raw,M,M1,125,1980-06-09,42
2,Marek Lipták,1978,124.5,Slovakia,,,,,,190,-200,-200,,190,,,,,,190,B,Raw,M,M1,125,1978-11-30,43
2,Marek Makarewicz,1979,126.2,Poland,,,,,,200,-210,210,,210,,,,,,210,B,Raw,M,M1,140,1979-04-29,43
3,Michal Čorba,1979,127.7,Slovakia,,,,,,160,165,,,165,,,,,,165,B,Raw,M,M1,140,1979-11-27,42
1,Łukasz Dalewski,1982,129,Poland,,,,,,200,210,212.5,,212.5,,,,,,212.5,B,Raw,M,M1,140,1982-10-07,40
1,Milan Mrázek,1979,146.3,Czechia,,,,,,220,230,235,240.5,235,,,,,,235,B,Raw,M,M1,140+,1979-02-13,43
1,István Répás,1977,66.6,Hungary,,,,,,132.5,141,-145,,141,,,,,,141,B,Raw,M,M2,67.5,1977-02-23,45
2,Plewa Roch Szumarowski,1973,77.2,Poland,,,,,,-140,140,-150,,140,,,,,,140,B,Raw,M,M2,82.5,1973-01-14,49
3,Pavol Glovacký,1977,81.2,Slovakia,,,,,,110,120,,,120,,,,,,120,B,Raw,M,M2,82.5,1977-06-06,45
1,Csaba Kecskés,1974,81.5,Hungary,,,,,,145,150,,,150,,,,,,150,B,Raw,M,M2,82.5,1974-05-04,48
1,Jani Storck,1976,88.8,Finland,,,,,,-170,172.5,175,,175,,,,,,175,B,Raw,M,M2,90,1976-05-16,46
2,Sławomír Purta,1973,89,Poland,,,,,,160,165,-175,,165,,,,,,165,B,Raw,M,M2,90,1973-06-07,49
4,Juliusz Zbierski,1974,89.2,Poland,,,,,,155,-157.5,-157.5,,155,,,,,,155,B,Raw,M,M2,90,1974-04-02,48
3,Stanislav Tůma,1977,89.5,Czechia,,,,,,-150,150,160,,160,,,,,,160,B,Raw,M,M2,90,1977-01-04,45
7,Dariusz Zwoliński,1974,90.5,Poland,,,,,,130,140,-145,,140,,,,,,140,B,Raw,M,M2,100,1974-11-06,47
2,Jozef Kišš,1975,93.3,Slovakia,,,,,,-190,195,-200,,195,,,,,,195,B,Raw,M,M2,100,1975-08-17,47
4,Michał Kopiec,1974,93.5,Poland,,,,,,-170,175,180,,180,,,,,,180,B,Raw,M,M2,100,1974-08-29,48
5,Štefan Sokoly,1976,93.5,Slovakia,,,,,,165,170,-177.5,,170,,,,,,170,B,Raw,M,M2,100,1976-01-14,46
3,István Szeifert,1977,97.4,Hungary,,,,,,-172.5,177.5,182.5,,182.5,,,,,,182.5,B,Raw,M,M2,100,1977-01-13,45
8,Pietro Molinari,1975,97.5,Italy,,,,,,120,125,130,,130,,,,,,130,B,Raw,M,M2,100,1975-01-23,47
6,Mihail Rekaikins,1976,98.6,Latvia,,,,,,160,-170,-170,,160,,,,,,160,B,Raw,M,M2,100,1976-07-19,46
5,Attila Marosi,1972,100.7,Hungary,,,,,,155,160,-165,,160,,,,,,160,B,Raw,M,M2,110,1972-12-22,49
4,László Kulcsár,1975,102.5,Hungary,,,,,,185,187.5,-190,,187.5,,,,,,187.5,B,Raw,M,M2,110,1975-02-16,47
2,Péter Odol Takács,1973,102.9,Hungary,,,,,,200,-207.5,207.5,,207.5,,,,,,207.5,B,Raw,M,M2,110,1973-09-22,49
3,Marcel Baláž,1977,104.7,Slovakia,,,,,,180,187.5,190,,190,,,,,,190,B,Raw,M,M2,110,1977-08-06,45
1,Makowski Stanisław Gąsienica,1973,109.5,Poland,,,,,,210,215,217.5,,217.5,,,,,,217.5,B,Raw,M,M2,110,1973-02-15,49
2,Tomáš Chludil,1973,120.9,Czechia,,,,,,-190,-190,190,,190,,,,,,190,B,Raw,M,M2,125,1973-03-06,49
1,Ferenc Som,1974,121.9,Hungary,,,,,,200,-207.5,-207.5,,200,,,,,,200,B,Raw,M,M2,125,1974-11-04,47
3,Peter Pletka,1975,122.9,Slovakia,,,,,,140,145,-150,,145,,,,,,145,B,Raw,M,M2,125,1975-12-06,46
4,Krzysztof Halczyk,1974,126.8,Poland,,,,,,170,175,-180,,175,,,,,,175,B,Raw,M,M2,140,1974-12-15,47
2,Sándor Vörös,1975,136,Slovakia,,,,,,180,195,205,,205,,,,,,205,B,Raw,M,M2,140,1975-11-10,46
5,Daniel Prus,1977,137.1,Poland,,,,,,130,-135,-135,,130,,,,,,130,B,Raw,M,M2,140,1977-08-08,45
3,Ireneusz Aletorowicz,1974,139.4,Poland,,,,,,185,190,-197.5,,190,,,,,,190,B,Raw,M,M2,140,1974-12-20,47
1,Mareks Leitis,1976,139.5,Latvia,,,,,,205,212.5,217.5,,217.5,,,,,,217.5,B,Raw,M,M2,140,1976-09-23,46
1,Zsolt Karlik,1972,73.2,Hungary,,,,,,150,155,161,162.5,161,,,,,,161,B,Raw,M,M3,75,1972-06-07,50
2,Georgijs Stoļerovs,1970,74.6,Latvia,,,,,,150,157.5,-162,,157.5,,,,,,157.5,B,Raw,M,M3,75,1970-06-15,52
1,Dezső Sr. Korom,1971,83.9,Hungary,,,,,,160,170,-175,,170,,,,,,170,B,Raw,M,M3,90,1971-03-05,51
2,Vladan Zapletal,1971,87.3,Czechia,,,,,,162.5,167.5,-172.5,,167.5,,,,,,167.5,B,Raw,M,M3,90,1971-08-18,51
1,Hovhannes Yazichyan,1971,95,Poland,,,,,,175,180,195,,195,,,,,,195,B,Raw,M,M3,100,1971-05-08,51
2,Oldřich Procházka,1970,98.8,Czechia,,,,,,185,190,-195,,190,,,,,,190,B,Raw,M,M3,100,1970-12-23,51
3,František,1971,99.7,Slovakia,,,,,,152.5,162.5,175,,175,,,,,,175,B,Raw,M,M3,100,1971-05-08,51
2,Tibor Pukáč,1971,101.2,Slovakia,,,,,,165,-175,-175,,165,,,,,,165,B,Raw,M,M3,110,1971-02-28,51
DQ,János Gombos,1968,103.4,Hungary,,,,,,,,,,,,,,,,,B,Raw,M,M3,110,1968-05-24,54
1,Vojtech Lázók,1968,105.3,Slovakia,,,,,,170,180,-182.5,,180,,,,,,180,B,Raw,M,M3,110,1968-09-03,54
DQ,Milan Pado,1972,106.5,Slovakia,,,,,,-170,-175,-180,,,,,,,,,B,Raw,M,M3,110,1972-09-10,50
3,Wojciech Kaliciak,1971,107.6,Poland,,,,,,150,157.5,-162.5,,157.5,,,,,,157.5,B,Raw,M,M3,110,1971-12-15,50
DQ,Marko Belic,1972,108.2,Serbia,,,,,,-170,-175,-175,,,,,,,,,B,Raw,M,M3,110,1972-08-05,50
2,Ronen Eliyahu,1968,115.1,Israel,,,,,,155,165,-172.5,,165,,,,,,165,B,Raw,M,M3,125,1968-07-20,54
3,László Baross,1970,115.7,Hungary,,,,,,150,157.5,-162.5,,157.5,,,,,,157.5,B,Raw,M,M3,125,1970-11-06,51
1,Erik Susztay,1972,121.1,Slovakia,,,,,,190,200,-210,,200,,,,,,200,B,Raw,M,M3,125,1972-06-28,50
2,Károly Németh,1971,129.5,Hungary,,,,,,165,170,175,,175,,,,,,175,B,Raw,M,M3,140,1971-01-15,51
1,László Horváth,1972,132.2,Hungary,,,,,,190,200,205,,205,,,,,,205,B,Raw,M,M3,140,1972-07-17,50
1,Zsolt Tóth,1970,141.8,Hungary,,,,,,195,205,-216.5,,205,,,,,,205,B,Raw,M,M3,140+,1970-02-11,52
2,Grzegorz Kantor,1972,146.7,Poland,,,,,,180,-185,-185,,180,,,,,,180,B,Raw,M,M3,140+,1972-01-19,50
3,Zoltán Holczmann,1971,149.2,Hungary,,,,,,170,-185,,,170,,,,,,170,B,Raw,M,M3,140+,1971-05-26,51
2,Ernő Varga,1965,70.9,Hungary,,,,,,120,125,130,,130,,,,,,130,B,Raw,M,M4,75,1965-07-28,57
3,Piotr Jurkiewicz,1966,71.6,Poland,,,,,,100,105,-110,,105,,,,,,105,B,Raw,M,M4,75,1966-06-10,56
1,Milan Suk,1963,73.6,Czechia,,,,,,-155,155,-165,-165,155,,,,,,155,B,Raw,M,M4,75,1963-01-09,59
1,László Kupcsik,1967,82,Hungary,,,,,,185,192.5,-200,,192.5,,,,,,192.5,B,Raw,M,M4,82.5,1967-01-03,55
2,Miklós Pomázi,1963,94,Hungary,,,,,,152.5,160,-175,,160,,,,,,160,B,Raw,M,M4,100,1963-09-27,59
1,Oleg Illarionov,1965,94.1,Latvia,,,,,,175,-185,185,,185,,,,,,185,B,Raw,M,M4,100,1965-11-06,56
5,Roman Růžička,1965,96.9,Czechia,,,,,,125,132.5,-137.5,,132.5,,,,,,132.5,B,Raw,M,M4,100,1965-06-15,57
4,Stanislav Jakubec,1967,98,Slovakia,,,,,,135,142.5,-155,,142.5,,,,,,142.5,B,Raw,M,M4,100,1967-02-27,55
3,Zsolt Mohácsi,1966,98.7,Hungary,,,,,,-150,155,157.5,,157.5,,,,,,157.5,B,Raw,M,M4,100,1966-03-12,56
3,László Bugyi,1965,102.7,Hungary,,,,,,165,-170,-170,,165,,,,,,165,B,Raw,M,M4,110,1965-07-23,57
1,Piotr Strzała,1966,105.8,UK,,,,,,180,185,-192.5,,185,,,,,,185,B,Raw,M,M4,110,1966-11-03,55
4,Marcelo Schneider,1967,108.4,Brazil,,,,,,-160,160,-167.5,,160,,,,,,160,B,Raw,M,M4,110,1967-02-25,55
2,František Nováček,1964,109.9,Czechia,,,,,,180,185,-190,,185,,,,,,185,B,Raw,M,M4,110,1964-12-14,57
1,Ján Orosz,1964,113.7,Slovakia,,,,,,175,185,-192.5,,185,,,,,,185,B,Raw,M,M4,125,1964-05-01,58
2,Adam Ubertowski,1967,119.9,Poland,,,,,,100,125,140,,140,,,,,,140,B,Raw,M,M4,125,1967-02-19,55
1,Csaba Molnár,1964,132.6,Hungary,,,,,,150,165,175,,175,,,,,,175,B,Raw,M,M4,140,1964-08-29,58
1,István László Lechner,1967,183.1,Hungary,,,,,,125,-130,132.5,,132.5,,,,,,132.5,B,Raw,M,M4,140+,1967-04-12,55
2,Reiner Krieger,1960,80.5,Germany,,,,,,102.5,107.5,-110,,107.5,,,,,,107.5,B,Raw,M,M5,82.5,1960-06-21,62
1,Gyual Leyer,1960,81.7,Hungary,,,,,,105,110,112.5,,112.5,,,,,,112.5,B,Raw,M,M5,82.5,1960-01-13,62
1,Mirosław Urbaniak,1961,87.3,Poland,,,,,,145,155,-157.5,,155,,,,,,155,B,Raw,M,M5,90,1961-04-06,61
2,Marek Strzałkowski,1959,88.4,Poland,,,,,,130,135,-137.5,,135,,,,,,135,B,Raw,M,M5,90,1959-10-30,62
1,Tamás Brauner,1960,94,Hungary,,,,,,140,-145,145,,145,,,,,,145,B,Raw,M,M5,100,1960-10-31,61
2,Ernst Berndsen,1960,95.1,Iceland,,,,,,120,-125,127.5,,127.5,,,,,,127.5,B,Raw,M,M5,100,1960-11-01,61
3,Jugal Kishore Dhawan,1962,95.6,India,,,,,,100,105,-110,,105,,,,,,105,B,Raw,M,M5,100,1962-02-03,60
1,Krzysztof Kłopocki,1959,107.9,Poland,,,,,,175,182.5,-185.5,,182.5,,,,,,182.5,B,Raw,M,M5,110,1959-04-10,63
1,Pál Kovács,1962,134.4,Hungary,,,,,,120,130,-135,,130,,,,,,130,B,Raw,M,M5,140,1962-09-03,60
1,Antoni Kaliňski,1953,63.7,Poland,,,,,,90,95,100,,100,,,,,,100,B,Raw,M,M6,67.5,1953-10-01,69
1,Gábor Goda,1954,72.7,Hungary,,,,,,130,135,,,135,,,,,,135,B,Raw,M,M6,75,1954-11-22,67
2,Zbigniew Koper,1953,72.7,Poland,,,,,,95,102.5,105,,105,,,,,,105,B,Raw,M,M6,75,1953-10-04,69
1,Karel Schoř,1955,81,Czechia,,,,,,130,140,-145,,140,,,,,,140,B,Raw,M,M6,82.5,1955-09-09,67
2,Gábor Zsolt Teleki,1953,81.4,Hungary,,,,,,100,-102.5,-102.5,,100,,,,,,100,B,Raw,M,M6,82.5,1953-07-10,69
3,Mieczysłąw Maczka,1954,84.7,Germany,,,,,,90,,,,90,,,,,,90,B,Raw,M,M6,90,1954-09-11,68
2,István Kucsera,1954,84.9,Hungary,,,,,,-120,120,-127.5,,120,,,,,,120,B,Raw,M,M6,90,1954-02-21,68
DQ,Rémy Krayzel,1955,86.9,Czechia,,,,,,-160,,,,,,,,,,,B,Raw,M,M6,90,1955-06-22,67
1,Miroslav Kolek,1954,88.6,Czechia,,,,,,120,125,127.5,,127.5,,,,,,127.5,B,Raw,M,M6,90,1954-04-14,68
3,József Sztanke,1954,94.4,Hungary,,,,,,70,85,,,85,,,,,,85,B,Raw,M,M6,100,1954-06-14,68
1,Ryszard Wilczak,1955,98.3,Poland,,,,,,125,130,,,130,,,,,,130,B,Raw,M,M6,100,1955-10-26,66
2,Jozef Matej,1954,99.5,Slovakia,,,,,,120,-127.5,,,120,,,,,,120,B,Raw,M,M6,100,1954-01-22,68
5,Tibor Horváth,1956,101.6,Hungary,,,,,,100,107.5,110,,110,,,,,,110,B,Raw,M,M6,110,1956-02-03,66
4,Flosi Jónsson,1954,106.6,Iceland,,,,,,147.5,-152.5,-152.5,,147.5,,,,,,147.5,B,Raw,M,M6,110,1954-09-28,68
2,Erich Koch,1955,107.7,Czechia,,,,,,140,147.5,150,,150,,,,,,150,B,Raw,M,M6,110,1955-10-05,67
3,Július Vrbiniak,1956,108.5,Slovakia,,,,,,140,145,150,,150,,,,,,150,B,Raw,M,M6,110,1956-12-20,65
1,Henryk Świerzy,1956,109.5,Poland,,,,,,145,150,152.5,,152.5,,,,,,152.5,B,Raw,M,M6,110,1956-03-08,66
1,Zoltán Varjú,1954,111.9,Hungary,,,,,,130,135,140,,140,,,,,,140,B,Raw,M,M6,125,1954-12-01,67
1,Pavel Klepáč,1955,125.8,Czechia,,,,,,100,105,107.5,,107.5,,,,,,107.5,B,Raw,M,M6,140,1955-12-21,66
1,Boris Lashin,1950,71.2,Israel,,,,,,105,107.5,-110,,107.5,,,,,,107.5,B,Raw,M,M7,75,1950-08-06,72
3,Stefan Sochaňski,1948,86.3,Poland,,,,,,67.5,-75,,,67.5,,,,,,67.5,B,Raw,M,M7,90,1948-11-17,73
1,Marc Assirelli,1948,88.4,France,,,,,,90,95,100,,100,,,,,,100,B,Raw,M,M7,90,1948-07-08,74
2,Roman Wanot,1948,88.8,Poland,,,,,,70,80,-90,,80,,,,,,80,B,Raw,M,M7,90,1948-05-22,74
2,Vladimír Svoboda,1952,91.9,Czechia,,,,,,85,90,95,,95,,,,,,95,B,Raw,M,M7,100,1952-08-12,70
1,György Kerékgyártó,1949,94,Hungary,,,,,,130,135,140,-145.5,140,,,,,,140,B,Raw,M,M7,100,1949-10-20,
3,Jozef Meravý,1950,96.6,Slovakia,,,,,,70,80,,,80,,,,,,80,B,Raw,M,M7,100,1950-04-20,72
1,Filho Serafin Rocha Lima,1948,103.6,Brazil,,,,,,50,70,-75,,70,,,,,,70,B,Raw,M,M7,110,1948-04-27,74
2,Ján Slovík,1951,108.1,Slovakia,,,,,,60,-65,65,,65,,,,,,65,B,Raw,M,M7,110,1951-03-21,71
1,Valery Frenklah,1943,65.5,Israel,,,,,,45,-50,,,45,,,,,,45,B,Raw,M,M8,67.5,1943-02-17,79
4,Jozef Bartek,1945,76.1,Slovakia,,,,,,-57.5,57.5,-60,,57.5,,,,,,57.5,B,Raw,M,M8,82.5,1945-03-06,77
3,Ladislav Kollár,1943,76.6,Slovakia,,,,,,95,-103,-105,,95,,,,,,95,B,Raw,M,M8,82.5,1943-10-19,
2,László Jobbágy,1947,80.8,Hungary,,,,,,100,103,-105,107.5,103,,,,,,103,B,Raw,M,M8,82.5,1947-08-09,75
1,Dusan Mills,1947,81,Australia,,,,,,95,103,105,107.5,105,,,,,,105,B,Raw,M,M8,82.5,1947-01-11,75
1,Yuri Aristidov,1936,58.7,Israel,,,,,,65,70,-72.5,,70,,,,,,70,B,Raw,M,M9,60,1936-07-16,86
1,Vilém Žák,1942,81.3,Czechia,,,,,,70,-75,-75,,70,,,,,,70,B,Raw,M,M9,82.5,1942-04-11,80
1,Lesley Jayne Thomas,1966,59.1,UK,,,,,,80,82.5,,,82.5,,,,,,82.5,B,Unlimited,F,M4,60,1966-04-21,56
1,Remigiusz Zwoliński,2003,95.5,Poland,,,,,,-250,250,270,,270,,,,,,270,B,Unlimited,M,T3,100,2003-08-15,19
2,Andrii Hryb,2003,99.6,Ukraine,,,,,,-230,-230,230,,230,,,,,,230,B,Unlimited,M,T3,100,2003-01-10,19
1,Maksymilian Lubosik,1998,73.4,Poland,,,,,,170,180,190,,190,,,,,,190,B,Unlimited,M,O,75,1998-09-23,24
1,Dániel Oláh,1998,90,Hungary,,,,,,280,302.5,310,315,310,,,,,,310,B,Unlimited,M,O,90,1998-02-02,24
1,Petr Bolf,1988,121.9,Czechia,,,,,,-390,390,-405,,390,,,,,,390,B,Unlimited,M,O,125,1988-05-01,34
1,Dave McGuinness,1979,98.1,Ireland,,,,,,280,-300,300,,300,,,,,,300,B,Unlimited,M,M1,100,1979-01-08,43
1,Tomasz Obcowski,1979,102.6,Poland,,,,,,340,370,-390,,370,,,,,,370,B,Unlimited,M,O,110,1979-01-05,43
1,Robert Ruonaniemi,1980,132.3,Finland,,,,,,-270,-280,280,-300,280,,,,,,280,B,Unlimited,M,M1,140,1980-09-10,42
1,Ferenc Balázs,1970,106.4,Hungary,,,,,,-290,305,-330,-330,305,,,,,,305,B,Unlimited,M,M3,110,1970-06-18,52
1,Bertelsen Soren,1961,96.7,Denmark,,,,,,260,-267.5,267.5,,267.5,,,,,,267.5,B,Unlimited,M,M5,100,1961-03-01,61
1,David Rex Thomas,1951,108.5,UK,,,,,,112.5,-117.5,,,112.5,,,,,,112.5,B,Unlimited,M,M7,110,1951-07-12,71
1,Barbara Bettina Pinter,2004,57,Hungary,,,,,,42.5,-45,45,,45,,,,,,45,B,Multi-ply,F,T3,60,2004-06-28,18
1,Sarah Allen #1,1978,51.4,UK,,,,,,35,40.5,42.5,,42.5,,,,,,42.5,B,Multi-ply,F,M1,52,1978-09-26,44
1,Dagmar Liptáková,1976,59.9,Slovakia,,,,,,100,105,-110,,105,,,,,,105,B,Multi-ply,F,M2,60,1976-02-19,46
1,Erika Molnár,1977,63.7,Hungary,,,,,,60,65,-70,,65,,,,,,65,B,Multi-ply,F,M2,67.5,1977-03-23,45
1,Tál Lívia Némethné,1971,62.4,Hungary,,,,,,45,-50,50,,50,,,,,,50,B,Multi-ply,F,M3,67.5,1971-10-23,50
1,Brigitte Maczka,1961,69.4,Germany,,,,,,35,40,42.5,,42.5,,,,,,42.5,B,Multi-ply,F,M5,75,1961-10-05,61
1,Ferenec Arnold Busznyak,2005,98.4,Hungary,,,,,,90,95,-97.5,,95,,,,,,95,B,Multi-ply,M,T2,100,2005-05-30,17
DQ,Bogusław Ufir,1993,65.3,Poland,,,,,,-217,-217,-217,,,,,,,,,B,Multi-ply,M,O,67.5,1993-02-28,29
1,Krzysztof Wolszczak,1985,74.5,Poland,,,,,,170,-180,180,,180,,,,,,180,B,Multi-ply,M,O,75,1985-06-02,37
1,Edgars Peterlēvics,1986,88.1,Latvia,,,,,,-265,265,-281,-281,265,,,,,,265,B,Multi-ply,M,O,90,1986-09-29,36
2,Dawid Deptuch,1986,89.8,Poland,,,,,,230,-245,-245,,230,,,,,,230,B,Multi-ply,M,O,90,1986-11-28,35
3,Gábor Galambos,1983,93.9,Hungary,,,,,,105,110,115,,115,,,,,,115,B,Multi-ply,M,O,100,1983-12-31,38
2,Imre Kadenszki,1993,96.3,Hungary,,,,,,130,-140,-145,,130,,,,,,130,B,Multi-ply,M,O,100,1993-06-06,29
1,Pavol Roba,1984,99.9,Slovakia,,,,,,-170,170,-180,,170,,,,,,170,B,Multi-ply,M,O,100,1984-05-16,38
1,Darren Bennett,1984,107,Ireland,,,,,,225,,,,225,,,,,,225,B,Multi-ply,M,O,110,1984-07-27,38
DQ,Ville Pulli,1988,117.9,Finland,,,,,,-225,-225,-225,,,,,,,,,B,Multi-ply,M,O,125,1988-07-07,34
1,Júnior Cícero Bezzera Da Silva,1982,80.9,Brazil,,,,,,195,205.5,-210,,205.5,,,,,,205.5,B,Multi-ply,M,M1,82.5,1982-04-11,40
1,Norbert Deli,1981,83.2,Hungary,,,,,,170,182.5,190,,190,,,,,,190,B,Multi-ply,M,M1,90,1981-06-27,41
1,Václav Mařík,1979,97.3,Czechia,,,,,,245,-255,-255,,245,,,,,,245,B,Multi-ply,M,M1,100,1979-05-19,43
DQ,Jozef Kopálek,1982,112,Slovakia,,,,,,-200,-200,-200,,,,,,,,,B,Multi-ply,M,M1,125,1982-04-17,40
2,Zoltán Virág,1982,142.6,Hungary,,,,,,140,150,-160,,150,,,,,,150,B,Multi-ply,M,M1,140+,1982-06-27,40
1,Oskars Zvarts,1978,147.2,Latvia,,,,,,260,280,-295,,280,,,,,,280,B,Multi-ply,M,M1,140+,1978-08-18,44
1,Plewa Roch Szumarowski,1973,77.9,Poland,,,,,,140,150,,,150,,,,,,150,B,Multi-ply,M,M2,82.5,1973-01-14,49
2,Janoš Ungai,1976,80.1,Hungary,,,,,,75,,,,75,,,,,,75,B,Multi-ply,M,M2,82.5,1976-04-01,46
1,Zoltán Győri,1975,98.7,Hungary,,,,,,190,-202.5,-205,,190,,,,,,190,B,Multi-ply,M,M2,100,1975-05-27,47
1,Attila Marosi,1972,104.6,Hungary,,,,,,-160,160,170,,170,,,,,,170,B,Multi-ply,M,M2,110,1972-12-22,49
1,Daniel Prus,1977,135.5,Poland,,,,,,130,145,-155,,145,,,,,,145,B,Multi-ply,M,M2,140,1977-08-08,45
1,Rafał Szendera,1971,74.8,Poland,,,,,,200,-205,-205,,200,,,,,,200,B,Multi-ply,M,M3,75,1971-11-05,50
DQ,Sean Blackburn,1968,113.1,UK,,,,,,-260,-260,-276,,,,,,,,,B,Multi-ply,M,M3,125,1968-01-29,54
1,Károly Németh,1971,131.1,Hungary,,,,,,185,195,-210,,195,,,,,,195,B,Multi-ply,M,M3,140,1971-01-15,51
1,Zsolt Mohácsi,1966,98.2,Hungary,,,,,,165,-175,175,,175,,,,,,175,B,Multi-ply,M,M4,100,1966-03-12,56
DQ,Andrew Saunders,1967,106.9,UK,,,,,,,,,,,,,,,,,B,Multi-ply,M,M4,110,1967-07-29,55
1,István Csertek,1964,116.5,Hungary,,,,,,160,167.5,172.5,,172.5,,,,,,172.5,B,Multi-ply,M,M4,125,1964-10-01,58
DQ,Adam Ubertowski,1967,121.4,Poland,,,,,,-200,-200,,,,,,,,,,B,Multi-ply,M,M4,125,1967-02-19,55
1,Saša Mašanović,1967,128.4,Montenegro,,,,,,-225,225,-235,-253.5,225,,,,,,225,B,Multi-ply,M,M4,140,1967-07-04,55
DQ,Csaba Molnár,1964,130.5,Hungary,,,,,,-260,-260,-260,,,,,,,,,B,Multi-ply,M,M4,140,1964-08-29,58
DQ,Kevin Maher,1961,101.5,UK,,,,,,-202.5,-202.5,-202.5,,,,,,,,,B,Multi-ply,M,M5,110,1961-06-03,61
1,Péter Mihály,1958,150,Slovakia,,,,,,120,,,,120,,,,,,120,B,Multi-ply,M,M5,140+,1958-06-27,64
1,Mieczysłąw Maczka,1954,84.4,Germany,,,,,,90,,,,90,,,,,,90,B,Multi-ply,M,M6,90,1954-09-11,68
1,Franciszek Szabluk,1956,98.5,Poland,,,,,,200,-207.5,-225,,200,,,,,,200,B,Multi-ply,M,M6,100,1956-09-17,66
1,Pavel Klepáč,1955,125.5,Czechia,,,,,,120,-125,,,120,,,,,,120,B,Multi-ply,M,M6,140,1955-12-21,66
1,Stefan Sochaňski,1948,85.4,Poland,,,,,,80,90,,,90,,,,,,90,B,Multi-ply,M,M7,90,1948-11-17,73
1,László Jobbágy,1947,80.3,Hungary,,,,,,-120,120,-140,,120,,,,,,120,B,Multi-ply,M,M8,82.5,1947-08-09,75
