Division,WeightClassKg,Place,Name,Team,BodyweightKg,Best3SquatKg,Best3BenchKg,Best3DeadliftKg,TotalKg,Equipment,Event,Sex
Boys,51.71,1,Brandon Stidham,Gladewater Sabine,47.49,129.27,74.84,133.81,337.93,Single-ply,SBD,M
Boys,51.71,2,Tyce Johnson,Bullard,46.04,102.06,70.31,120.2,292.57,Single-ply,SBD,M
Boys,51.71,3,Landon Warren,Bullard,47.81,97.52,56.7,111.13,265.35,Single-ply,SBD,M
Boys,51.71,4,Jerry Fail,Elkhart,48.9,102.06,54.43,102.06,258.55,Single-ply,SBD,M
Boys,55.79,1,Eric Reaper,Tyler Chapel Hill,55.7,170.1,106.59,156.49,433.18,Single-ply,SBD,M
Boys,55.79,2,Angel Barroso,Tyler Chapel Hill,54.48,149.69,99.79,142.88,392.36,Single-ply,SBD,M
Boys,55.79,3,Chandler Prnka,Malakoff,52.89,140.61,70.31,136.08,347,Single-ply,SBD,M
Boys,55.79,4,Aaron Blake,Tyler Chapel Hill,54.84,136.08,54.43,136.08,326.59,Single-ply,SBD,M
Boys,55.79,5,Jaidon Garrick,Lindale,53.3,127.01,58.97,136.08,322.05,Single-ply,SBD,M
Boys,55.79,DQ,Javi Zamora,Palestine,53.3,117.93,,,,Single-ply,SBD,M
Boys,55.79,DQ,Justin Villatoro,Palestine,54.2,122.47,,,,Single-ply,SBD,M
Boys,59.87,1,Will McCowin,Bullard,59.87,158.76,74.84,172.37,405.97,Single-ply,SBD,M
Boys,59.87,2,Jaden Taylor,Lindale,59.74,163.29,77.11,161.03,401.43,Single-ply,SBD,M
Boys,59.87,3,Caleb Smith #8,Troup,59.42,163.29,88.45,147.42,399.16,Single-ply,SBD,M
Boys,59.87,DQ,Marques Thompson,Palestine,56.84,115.67,,,,Single-ply,SBD,M
Boys,59.87,DQ,Cooper Jordan,Elkhart,59.87,117.93,86.18,,,Single-ply,SBD,M
Boys,59.87,DQ,Jordan Martin #4,Whitehouse,59.74,111.13,52.16,,,Single-ply,SBD,M
Boys,67.13,1,Walt Mahmoud,Athens,67.13,192.78,111.13,190.51,494.42,Single-ply,SBD,M
Boys,67.13,2,Demarkus Ray,Elkhart,65.23,190.51,104.33,190.51,485.34,Single-ply,SBD,M
Boys,67.13,3,Bryce Stephens,Brownsboro,65.54,192.78,117.93,172.37,483.08,Single-ply,SBD,M
Boys,67.13,4,Michael Zuniga,Troup,67.09,176.9,113.4,174.63,464.93,Single-ply,SBD,M
Boys,67.13,5,Damion Brown,Bullard,65.82,165.56,111.13,170.1,446.79,Single-ply,SBD,M
Boys,67.13,6,Tristan Larsen,Tyler Chapel Hill,64.09,181.44,88.45,172.37,442.25,Single-ply,SBD,M
Boys,67.13,7,Kevin Pham,Palestine,65.68,170.1,83.91,170.1,424.11,Single-ply,SBD,M
Boys,67.13,8,Josh Mascola,Bullard,65.91,158.76,99.79,158.76,417.3,Single-ply,SBD,M
Boys,67.13,9,Andrew Spellman,Lindale,62.46,158.76,79.38,170.1,408.23,Single-ply,SBD,M
Boys,67.13,10,Alec Morris,Gladewater Sabine,62.1,120.2,81.65,133.81,335.66,Single-ply,SBD,M
Boys,67.13,11,Austin Parker,Whitehouse,63.73,124.74,79.38,131.54,335.66,Single-ply,SBD,M
Boys,67.13,12,Dylan Castillo,Brownsboro,62.6,104.33,70.31,149.69,324.32,Single-ply,SBD,M
Boys,67.13,13,Jared Martin #3,Whitehouse,67.13,79.38,61.23,161.03,301.64,Single-ply,SBD,M
Boys,67.13,14,Dakota Simmons,Bullard,65.54,108.86,65.77,120.2,294.84,Single-ply,SBD,M
Boys,67.13,DQ,James Jacobs #3,Gladewater Sabine,63.73,,,,,Single-ply,SBD,M
Boys,67.13,DQ,Kole Stripland,Gladewater Sabine,65.05,,,,,Single-ply,SBD,M
Boys,67.13,DQ,Draven DeLeon,Palestine,66.59,136.08,,,,Single-ply,SBD,M
Boys,67.13,DQ,Tyler Grey,Palestine,67.13,,,,,Single-ply,SBD,M
Boys,74.84,1,Toby Thatcher,Bullard,73.89,254.01,149.69,224.53,628.23,Single-ply,SBD,M
Boys,74.84,2,Ramiro Martinez,Troup,74.07,204.12,136.08,226.8,566.99,Single-ply,SBD,M
Boys,74.84,3,Michael Jones #11,Elkhart,74.8,201.85,117.93,215.46,535.24,Single-ply,SBD,M
Boys,74.84,4,Jeremiah Johnson #7,Whitehouse,71.12,206.38,102.06,195.04,503.49,Single-ply,SBD,M
Boys,74.84,5,Anthony Lopez,Athens,74.16,183.7,142.88,165.56,492.15,Single-ply,SBD,M
Boys,74.84,6,Corey De Armint,Lindale,74.25,195.04,88.45,181.44,464.93,Single-ply,SBD,M
Boys,74.84,7,Chase Welvert,Lindale,74.16,172.37,99.79,165.56,437.72,Single-ply,SBD,M
Boys,74.84,8,Chris Devries,Whitehouse,74.8,185.97,92.99,149.69,428.64,Single-ply,SBD,M
Boys,74.84,9,Cade Duvak,Bullard,71.89,149.69,99.79,165.56,415.04,Single-ply,SBD,M
Boys,74.84,10,Nico Flores,Lindale,74.07,158.76,83.91,172.37,415.04,Single-ply,SBD,M
Boys,74.84,11,Keyshawn Nonette,Palestine,74.71,158.76,88.45,163.29,410.5,Single-ply,SBD,M
Boys,74.84,12,Brayden Bulman,Whitehouse,73.53,142.88,99.79,142.88,385.55,Single-ply,SBD,M
Boys,74.84,13,Braden Raymond,Malakoff,70.17,147.42,72.57,154.22,374.21,Single-ply,SBD,M
Boys,74.84,14,Sam Reeves #2,Whitehouse,71.4,142.88,102.06,124.74,369.68,Single-ply,SBD,M
Boys,74.84,15,Steven Burks,Bullard,73.98,124.74,102.06,142.88,369.68,Single-ply,SBD,M
Boys,74.84,16,Tyler Hernandez,Bullard,70.81,142.88,79.38,142.88,365.14,Single-ply,SBD,M
Boys,74.84,17,Colby McKeehan,Lindale,72.85,122.47,70.31,161.03,353.8,Single-ply,SBD,M
Boys,74.84,18,Wyatt Mauldin,Lindale,74.25,136.08,72.57,145.15,353.8,Single-ply,SBD,M
Boys,74.84,19,Mike Molina,Brownsboro,74.62,120.2,70.31,149.69,340.19,Single-ply,SBD,M
Boys,74.84,20,Devin Pierce,Whitehouse,70.44,124.74,79.38,133.81,337.93,Single-ply,SBD,M
Boys,74.84,21,Josh Farrar,Whitehouse,73.8,124.74,70.31,136.08,331.12,Single-ply,SBD,M
Boys,74.84,DQ,Aaren Webb,Gladewater Sabine,72.12,92.99,,,,Single-ply,SBD,M
Boys,74.84,DQ,Daniel Wood,Gladewater Sabine,73.3,,,,,Single-ply,SBD,M
Boys,74.84,DQ,Steven Hibbard,Bullard,74.21,,,,,Single-ply,SBD,M
Boys,82.1,1,Ryan Lindsay,Elkhart,79.83,247.21,113.4,226.8,587.4,Single-ply,SBD,M
Boys,82.1,2,Austin Davis,Bullard,78.93,222.26,142.88,213.19,578.33,Single-ply,SBD,M
Boys,82.1,3,Mike Agan,Elkhart,80.88,229.06,127.01,199.58,555.65,Single-ply,SBD,M
Boys,82.1,4,Jansen Mattingly,Bullard,81.28,208.65,111.13,222.26,542.04,Single-ply,SBD,M
Boys,82.1,5,Nate Bell,Elkhart,77.79,215.46,129.27,190.51,535.24,Single-ply,SBD,M
Boys,82.1,6,Keelan Felts,Brownsboro,78.06,183.7,104.33,188.24,476.27,Single-ply,SBD,M
Boys,82.1,7,Quinton Cook,Palestine,79.2,165.56,124.74,181.44,471.74,Single-ply,SBD,M
Boys,82.1,8,Bobby Posey,Brownsboro,79.2,183.7,99.79,185.97,469.47,Single-ply,SBD,M
Boys,82.1,9,Jason Ousley,Whitehouse,76.88,167.83,102.06,165.56,435.45,Single-ply,SBD,M
Boys,82.1,10,David Simmons,Bullard,81.06,142.88,92.99,181.44,417.3,Single-ply,SBD,M
Boys,82.1,11,Klayton House,Athens,77.97,149.69,83.91,154.22,387.82,Single-ply,SBD,M
Boys,82.1,12,Tyler Crews,Malakoff,76.84,149.69,74.84,154.22,378.75,Single-ply,SBD,M
Boys,82.1,13,Marlon Castillo,Whitehouse,79.74,120.2,86.18,129.27,335.66,Single-ply,SBD,M
Boys,82.1,DQ,Johnathan Hernandez,Malakoff,78.74,151.95,97.52,,,Single-ply,SBD,M
Boys,82.1,DQ,Luke Bowman,Bullard,77.88,192.78,,,,Single-ply,SBD,M
Boys,82.1,DQ,Roderick Deyon,Palestine,79.65,219.99,,,,Single-ply,SBD,M
Boys,89.81,1,DeCorian Horton,Tyler Chapel Hill,87.77,272.16,151.95,260.82,684.92,Single-ply,SBD,M
Boys,89.81,2,David Bledsoe,Lindale,89.13,233.6,131.54,235.87,601.01,Single-ply,SBD,M
Boys,89.81,3,Gavin DeFore,Elkhart,89.54,229.06,145.15,226.8,601.01,Single-ply,SBD,M
Boys,89.81,4,Maalik Hall,Athens,86.32,222.26,113.4,215.46,551.11,Single-ply,SBD,M
Boys,89.81,5,David Allen #5,Troup,89.81,215.46,124.74,204.12,544.31,Single-ply,SBD,M
Boys,89.81,6,Cheyenne Compton,Gladewater Sabine,86.5,181.44,92.99,204.12,478.54,Single-ply,SBD,M
Boys,89.81,7,Cole Hobbs,Gladewater Sabine,83.91,183.7,106.59,179.17,469.47,Single-ply,SBD,M
Boys,89.81,8,Walt Richardson,Palestine,86,179.17,104.33,181.44,464.93,Single-ply,SBD,M
Boys,89.81,9,Kyle Reed,Lindale,89.13,183.7,90.72,181.44,455.86,Single-ply,SBD,M
Boys,89.81,10,Nick Gregory,Lindale,85.96,149.69,83.91,174.63,408.23,Single-ply,SBD,M
Boys,89.81,DQ,Tony Miranda,Athens,88.41,217.72,117.93,,,Single-ply,SBD,M
Boys,89.81,DQ,Kyler Dalrymple,Malakoff,87.09,156.49,,,,Single-ply,SBD,M
Boys,99.79,1,Noah Bush,Athens,99.25,238.14,170.1,247.21,655.44,Single-ply,SBD,M
Boys,99.79,2,Marquis Massenburge,Tyler Chapel Hill,89.99,247.21,133.81,249.48,630.49,Single-ply,SBD,M
Boys,99.79,3,Ty McDaniel,Lindale,97.34,265.35,127.01,229.06,621.42,Single-ply,SBD,M
Boys,99.79,4,Khristion Little,Tyler Chapel Hill,90.36,249.48,131.54,219.99,601.01,Single-ply,SBD,M
Boys,99.79,5,Edward Reese,Palestine,94.71,219.99,122.47,238.14,580.6,Single-ply,SBD,M
Boys,99.79,6,Shemar Willis,Athens,98.7,208.65,136.08,215.46,560.19,Single-ply,SBD,M
Boys,99.79,7,Donaven Dotson,Tyler Chapel Hill,93.44,208.65,129.27,215.46,553.38,Single-ply,SBD,M
Boys,99.79,8,Coltin Paskey,Tyler Chapel Hill,97.84,208.65,136.08,192.78,537.51,Single-ply,SBD,M
Boys,99.79,9,Travell Bryant,Palestine,98.02,195.04,129.27,204.12,528.44,Single-ply,SBD,M
Boys,99.79,10,Caleb Adams,Malakoff,90.49,197.31,120.2,190.51,508.02,Single-ply,SBD,M
Boys,99.79,11,Jose Oliveras,Bullard,96.71,183.7,117.93,195.04,496.68,Single-ply,SBD,M
Boys,99.79,12,Byron Brown,Whitehouse,98.25,183.7,111.13,192.78,487.61,Single-ply,SBD,M
Boys,99.79,13,Cedrick Hicks,Palestine,99.61,192.78,106.59,142.88,442.25,Single-ply,SBD,M
Boys,99.79,DQ,Austin Prevost,Malakoff,91.08,176.9,,,,Single-ply,SBD,M
Boys,99.79,DQ,Trent Allen,Troup,90.95,,,,,Single-ply,SBD,M
Boys,99.79,DQ,Jonah Flores,Lindale,94.53,176.9,99.79,,,Single-ply,SBD,M
Boys,109.77,1,TJ Jones,Elkhart,106.41,272.16,145.15,238.14,655.44,Single-ply,SBD,M
Boys,109.77,2,Hunter Tucker,Tyler Chapel Hill,107.5,260.82,131.54,226.8,619.15,Single-ply,SBD,M
Boys,109.77,3,Jacob Faulk,Bullard,105.37,222.26,142.88,226.8,591.94,Single-ply,SBD,M
Boys,109.77,4,Darius Trimble,Whitehouse,109.45,238.14,124.74,219.99,582.87,Single-ply,SBD,M
Boys,109.77,5,Deonundre Hatton,Palestine,103.01,210.92,151.95,197.31,560.19,Single-ply,SBD,M
Boys,109.77,6,Santiago Castillo,Lindale,105.87,201.85,111.13,219.99,532.97,Single-ply,SBD,M
Boys,109.77,7,Jonathan Housley,Whitehouse,108.68,201.85,124.74,190.51,517.1,Single-ply,SBD,M
Boys,109.77,8,Jace Phillips #1,Lindale,109.04,217.72,106.59,167.83,492.15,Single-ply,SBD,M
Boys,109.77,9,Caleb Roberts,Lindale,101.92,204.12,102.06,181.44,487.61,Single-ply,SBD,M
Boys,109.77,10,Keith Nonette,Palestine,101.88,163.29,106.59,158.76,428.64,Single-ply,SBD,M
Boys,124.74,1,D'Marea Sueing,Whitehouse,123.56,274.42,124.74,204.12,603.28,Single-ply,SBD,M
Boys,124.74,2,Garrett Hayes,Athens,121.56,226.8,136.08,235.87,598.74,Single-ply,SBD,M
Boys,124.74,3,Matt Edwards,Lindale,121.79,231.33,129.27,222.26,582.87,Single-ply,SBD,M
Boys,124.74,4,Carson Cheney,Lindale,118.39,222.26,117.93,190.51,530.7,Single-ply,SBD,M
Boys,124.74,5,Alfredo Miranda,Athens,120.52,204.12,145.15,174.63,523.9,Single-ply,SBD,M
Boys,124.74,6,Lincoln Rodgers,Malakoff,113.81,197.31,115.67,174.63,487.61,Single-ply,SBD,M
Boys,124.74,DQ,Jose Arreguin,Tyler Chapel Hill,121.47,,,,,Single-ply,SBD,M
Boys,124.74+,1,Jesus Garcia-Castillo,Palestine,160.07,283.5,156.49,238.14,678.12,Single-ply,SBD,M
Boys,124.74+,2,John Campbell,Bullard,139.3,267.62,158.76,204.12,630.49,Single-ply,SBD,M
Boys,124.74+,3,Dejuan Ealy,Palestine,126.55,263.08,161.03,183.7,607.81,Single-ply,SBD,M
Boys,124.74+,4,Corbin Johnson,Lindale,143.29,249.48,133.81,192.78,576.06,Single-ply,SBD,M
Boys,124.74+,5,Devin Lewis,Bullard,145.42,181.44,136.08,183.7,501.22,Single-ply,SBD,M
Boys,124.74+,6,Tradarion Sadler,Palestine,148.6,151.95,108.86,183.7,444.52,Single-ply,SBD,M
Boys,,NS,Davis Young,Athens,,,,,,Single-ply,SBD,M
Boys,,NS,Jose Guerro,Athens,,,,,,Single-ply,SBD,M
