Division,WeightClassKg,Place,Name,Team,BodyweightKg,Best3SquatKg,Best3BenchKg,Best3DeadliftKg,TotalKg,Equipment,Event,Sex
Boys,51.71,1,Drew Haas,Hallettsville,50.35,102.06,56.7,111.13,269.89,Single-ply,SBD,M
Boys,51.71,2,Chris Lopez,Three Rivers,49.8,102.06,49.9,106.59,258.55,Single-ply,SBD,M
Boys,51.71,3,Dalton Couch,Gonzales,51.71,90.72,52.16,111.13,254.01,Single-ply,SBD,M
Boys,59.87,1,Michael Casarez,Three Rivers,56.02,195.04,90.72,190.51,476.27,Single-ply,SBD,M
Boys,55.79,2,Dustin Thomas,Three Rivers,54.79,120.2,63.5,145.15,328.85,Single-ply,SBD,M
Boys,55.79,3,Joshua Estrada,Gonzales,54.43,122.47,70.31,131.54,324.32,Single-ply,SBD,M
Boys,55.79,4,Ryan Rodriguez,Cuero,54.88,113.4,74.84,136.08,324.32,Single-ply,SBD,M
Boys,55.79,5,Dylan Torres,Runge,53.61,115.67,70.31,136.08,322.05,Single-ply,SBD,M
Boys,55.79,6,Caleb Schendel,Yorktown,55.79,113.4,65.77,127.01,306.17,Single-ply,SBD,M
Boys,67.13,1,Darion McMahan,Stockdale,59.92,181.44,104.33,172.37,458.13,Single-ply,SBD,M
Boys,59.87,2,Miguel Hernandez,Nixon Smiley,58.42,149.69,83.91,161.03,394.63,Single-ply,SBD,M
Boys,59.87,3,Jacob Perez #3,Nixon Smiley,58.88,145.15,83.91,161.03,390.09,Single-ply,SBD,M
Boys,59.87,4,Taylor Nobles,Yoakum,59.78,156.49,72.57,151.95,381.02,Single-ply,SBD,M
Boys,59.87,5,Gabe Casares,Gonzales,58.51,133.81,86.18,151.95,371.95,Single-ply,SBD,M
Boys,59.87,6,Kalup Guerrero,Charlotte,56.61,124.74,74.84,154.22,353.8,Single-ply,SBD,M
Boys,59.87,7,Lane Faust,Yoakum,59.15,122.47,79.38,149.69,351.53,Single-ply,SBD,M
Boys,59.87,8,Corey Barnes,Runge,56.43,106.59,61.23,136.08,303.91,Single-ply,SBD,M
Boys,59.87,9,Logan Romans,Yorktown,59.42,95.25,68.04,129.27,292.57,Single-ply,SBD,M
Boys,67.13,1,Marty Garza,Jourdanton,66.86,195.04,129.27,199.58,523.9,Single-ply,SBD,M
Boys,67.13,2,Chase Dolezal,Hallettsville,62.14,192.78,95.25,183.7,471.74,Single-ply,SBD,M
Boys,67.13,3,Alejandro Hernandez,Gonzales,66.68,142.88,97.52,172.37,412.77,Single-ply,SBD,M
Boys,67.13,4,Jose Jacobo,Nixon Smiley,65.5,124.74,88.45,151.95,365.14,Single-ply,SBD,M
Boys,67.13,5,Nathan Thiry,Yoakum,62.51,122.47,79.38,149.69,351.53,Single-ply,SBD,M
Boys,67.13,6,Dustin Metting,Yorktown,66.68,124.74,79.38,147.42,351.53,Single-ply,SBD,M
Boys,67.13,7,Andres Tovar,Nixon Smiley,60.69,111.13,74.84,140.61,326.59,Single-ply,SBD,M
Boys,67.13,8,Andres Alvarez,Nixon Smiley,64.14,97.52,65.77,151.95,315.25,Single-ply,SBD,M
Boys,67.13,9,Justin Vasquez,Runge,67.04,102.06,68.04,142.88,312.98,Single-ply,SBD,M
Boys,67.13,10,Justin Reeves,Hallettsville,62.96,115.67,70.31,115.67,301.64,Single-ply,SBD,M
Boys,67.13,11,Adam Romero,Three Rivers,66.95,102.06,63.5,131.54,297.1,Single-ply,SBD,M
Boys,67.13,DQ,Ricky Reeder,Yorktown,66.22,,,,,Single-ply,SBD,M
Boys,67.13,DQ,Mark Cansino,Hallettsville,65.14,124.74,,,,Single-ply,SBD,M
Boys,67.13,DQ,Dylan Harryman,Cuero,66.13,124.74,,,,Single-ply,SBD,M
Boys,67.13,DQ,Logan Neitch,Cuero,62.6,,,,,Single-ply,SBD,M
Boys,67.13,DQ,Marr Valadez,Stockdale,66.41,,,,,Single-ply,SBD,M
Boys,67.13,DQ,Dokota Kotara,Stockdale,63.59,,,,,Single-ply,SBD,M
Boys,74.84,1,Zach Lopez,Gonzales,72.57,192.78,102.06,195.04,489.88,Single-ply,SBD,M
Boys,74.84,2,Aaron Lopez,Jourdanton,71.12,204.12,99.79,181.44,485.34,Single-ply,SBD,M
Boys,74.84,3,Kody Perez,Yoakum,71.85,176.9,106.59,192.78,476.27,Single-ply,SBD,M
Boys,74.84,4,Daniel Riveria,Gonzales,72.57,192.78,90.72,192.78,476.27,Single-ply,SBD,M
Boys,74.84,5,Cohl Stremmel,Yorktown,73.94,165.56,113.4,151.95,430.91,Single-ply,SBD,M
Boys,74.84,6,Mark Saldana,Nixon Smiley,72.85,142.88,104.33,156.49,403.7,Single-ply,SBD,M
Boys,82.1,7,Brandon Brewer,Cuero,75.07,158.76,95.25,147.42,401.43,Single-ply,SBD,M
Boys,74.84,8,Lane Strieber,Yorktown,74.84,165.56,83.91,149.69,399.16,Single-ply,SBD,M
Boys,74.84,9,Joshua Tristian,Nixon Smiley,72.85,142.88,81.65,163.29,387.82,Single-ply,SBD,M
Boys,74.84,10,Troy Deweese,Yoakum,73.48,142.88,83.91,158.76,385.55,Single-ply,SBD,M
Boys,74.84,11,Dyllan Kerr,Hallettsville,70.67,142.88,79.38,149.69,371.95,Single-ply,SBD,M
Boys,74.84,12,Nick Quistanilla,Karnes City,73.84,142.88,81.65,147.42,371.95,Single-ply,SBD,M
Boys,74.84,13,Patrick Jarratt,Three Rivers,74.75,149.69,58.97,158.76,367.41,Single-ply,SBD,M
Boys,74.84,14,Tyler Skelton,Hallettsville,69.04,142.88,83.91,138.35,365.14,Single-ply,SBD,M
Boys,74.84,15,Perry Bone,Stockdale,70.62,136.08,86.18,136.08,358.34,Single-ply,SBD,M
Boys,74.84,16,Micah David,Cuero,67.77,113.4,63.5,147.42,324.32,Single-ply,SBD,M
Boys,74.84,17,Devyn Schultz,Kenedy,72.67,108.86,70.31,136.08,315.25,Single-ply,SBD,M
Boys,74.84,18,Dustin Flagg,Yoakum,68.95,92.99,49.9,90.72,233.6,Single-ply,SBD,M
Boys,74.84,DQ,Cody Lubyinesky,Yorktown,72.57,,,,,Single-ply,SBD,M
Boys,74.84,DQ,Layne Balfanz,Cuero,74.03,165.56,,,,Single-ply,SBD,M
Boys,82.1,1,Hunter Noack,Gonzales,80.29,197.31,113.4,226.8,537.51,Single-ply,SBD,M
Boys,82.1,2,Paul Saldana,Nixon Smiley,76.57,185.97,117.93,213.19,517.1,Single-ply,SBD,M
Boys,82.1,3,Andrew Jemenez,Yoakum,76.93,199.58,115.67,195.04,510.29,Single-ply,SBD,M
Boys,82.1,4,Rex Kutzer,Yoakum,78.2,156.49,120.2,183.7,460.4,Single-ply,SBD,M
Boys,82.1,5,Adrian Molina,Gonzales,80.74,172.37,111.13,172.37,455.86,Single-ply,SBD,M
Boys,82.1,6,Andy Madrigal,Runge,76.2,120.2,79.38,142.88,342.46,Single-ply,SBD,M
Boys,82.1,7,Alex Garcia #9,Jourdanton,78.11,117.93,70.31,136.08,324.32,Single-ply,SBD,M
Boys,82.1,8,Larry Stevens,Kenedy,75.11,120.2,70.31,129.27,319.78,Single-ply,SBD,M
Boys,82.1,9,Oscar Torres,Nixon Smiley,80.2,102.06,74.84,115.67,292.57,Single-ply,SBD,M
Boys,82.1,DQ,Billy Rodriguez,Cuero,76.84,176.9,,,,Single-ply,SBD,M
Boys,89.81,1,Landon Lock,Gonzales,87.09,258.55,138.35,249.48,646.37,Single-ply,SBD,M
Boys,89.81,2,Chase Wiatrek,Poth,88.72,204.12,124.74,215.46,544.31,Single-ply,SBD,M
Boys,99.79,3,Nathan Morin,Three Rivers,89.99,204.12,111.13,215.46,530.7,Single-ply,SBD,M
Boys,89.81,4,Derek Franke,Yorktown,83.91,188.24,111.13,204.12,503.49,Single-ply,SBD,M
Boys,89.81,5,Corey Allahi,Nixon Smiley,86.82,158.76,127.01,199.58,485.34,Single-ply,SBD,M
Boys,89.81,6,Weston Block,Karnes City,86.45,179.17,99.79,183.7,462.66,Single-ply,SBD,M
Boys,89.81,7,Isais Cruz,Jourdanton,88,156.49,102.06,192.78,451.32,Single-ply,SBD,M
Boys,99.79,8,Kalli Escamilla,Three Rivers,89.9,163.29,81.65,195.04,439.98,Single-ply,SBD,M
Boys,89.81,9,Harold Rios,Runge,85.64,122.47,79.38,170.1,371.95,Single-ply,SBD,M
Boys,89.81,DQ,Jordan Kasper-Hines,Three Rivers,87.63,127.01,,,,Single-ply,SBD,M
Boys,89.81,DQ,Austin Block,Karnes City,88,172.37,,,,Single-ply,SBD,M
Boys,89.81,DQ,JT Miller,Gonzales,88.45,,,,,Single-ply,SBD,M
Boys,99.79,1,Korry Huddleston,Yorktown,90.26,215.46,138.35,197.31,551.11,Single-ply,SBD,M
Boys,99.79,2,Enrique Lugo,Jourdanton,92.8,199.58,124.74,174.63,498.95,Single-ply,SBD,M
Boys,99.79,3,Brice Lauer,Yoakum,91.26,183.7,115.67,183.7,483.08,Single-ply,SBD,M
Boys,99.79,4,Coy Condel,Gonzales,95.71,181.44,88.45,199.58,469.47,Single-ply,SBD,M
Boys,99.79,5,Lupe Banda,Yoakum,95.98,156.49,102.06,158.76,417.3,Single-ply,SBD,M
Boys,99.79,6,Jose Hernandez #23,Yoakum,90.72,170.1,86.18,158.76,415.04,Single-ply,SBD,M
Boys,99.79,7,Kyle Leopold,Hallettsville,90.45,145.15,74.84,181.44,401.43,Single-ply,SBD,M
Boys,99.79,8,Kolby Janek,Poth,90.9,154.22,99.79,145.15,399.16,Single-ply,SBD,M
Boys,99.79,9,Pascual Hernandez,Nixon Smiley,94.44,104.33,61.23,127.01,292.57,Single-ply,SBD,M
Boys,109.77,1,Scott Richter,Yoakum,108.86,249.48,172.37,217.72,639.57,Single-ply,SBD,M
Boys,109.77,2,John Mendoza #3,Karnes City,109.77,201.85,129.27,231.33,562.45,Single-ply,SBD,M
Boys,109.77,3,Anthony Fish,Poth,108.77,213.19,131.54,206.38,551.11,Single-ply,SBD,M
Boys,109.77,4,Daniel Diaz,Three Rivers,100.52,192.78,124.74,181.44,498.95,Single-ply,SBD,M
Boys,109.77,5,Jake West,Yoakum,106.5,204.12,104.33,181.44,489.88,Single-ply,SBD,M
Boys,109.77,6,Israel Aguerro,Jourdanton,102.15,176.9,106.59,183.7,467.2,Single-ply,SBD,M
Boys,109.77,7,Tj Rodriguez,Three Rivers,100.61,185.97,111.13,165.56,462.66,Single-ply,SBD,M
Boys,109.77,8,Logan McMain,Nixon Smiley,102.42,170.1,97.52,183.7,451.32,Single-ply,SBD,M
Boys,109.77,9,Gabriel García,Yoakum,103.87,197.31,88.45,163.29,449.06,Single-ply,SBD,M
Boys,109.77,10,John Guerra,Nixon Smiley,100.43,154.22,92.99,190.51,437.72,Single-ply,SBD,M
Boys,109.77,11,Lucas Janysek,Karnes City,105.14,136.08,92.99,170.1,399.16,Single-ply,SBD,M
Boys,109.77,12,Tony Pinon,Yoakum,108.23,142.88,102.06,149.69,394.63,Single-ply,SBD,M
Boys,109.77,DQ,Chris Price,Yoakum,109.59,226.8,142.88,,,Single-ply,SBD,M
Boys,109.77,DQ,Cody Barnett,Yorktown,100.7,,,,,Single-ply,SBD,M
Boys,124.74,1,Brodie Ruiz,Three Rivers,111.77,231.33,129.27,199.58,560.19,Single-ply,SBD,M
Boys,124.74+,2,Carlos Reyes #3,Kenedy,124.92,147.42,124.74,197.31,469.47,Single-ply,SBD,M
Boys,124.74,3,Brian Dolezal,Gonzales,113.85,165.56,106.59,174.63,446.79,Single-ply,SBD,M
Boys,124.74,4,Matthew Gomez,Gonzales,122.02,158.76,104.33,170.1,433.18,Single-ply,SBD,M
Boys,124.74,5,Nathan Hernandez,Kenedy,119.93,163.29,97.52,151.95,412.77,Single-ply,SBD,M
Boys,124.74,6,Hudson Haas,Cuero,124.28,158.76,90.72,142.88,392.36,Single-ply,SBD,M
Boys,124.74,7,Kyle Klett,Cuero,112.58,133.81,90.72,142.88,367.41,Single-ply,SBD,M
Boys,124.74,8,Eric Diaz,Charlotte,112.85,113.4,83.91,154.22,351.53,Single-ply,SBD,M
Boys,124.74+,1,Willie Hights,Yoakum,151.05,294.84,158.76,226.8,680.39,Single-ply,SBD,M
Boys,124.74+,2,Manuel Tijerina,Jourdanton,133.17,224.53,127.01,249.48,601.01,Single-ply,SBD,M
Boys,124.74+,3,Tyler Verette,Jourdanton,130,204.12,145.15,215.46,564.72,Single-ply,SBD,M
Boys,124.74+,4,Cody Jurek,Gonzales,132.45,185.97,129.27,208.65,523.9,Single-ply,SBD,M
